tRemaining, tElapsed, tTotal, Current, Voltage, Temp1, Temp2, 
-58.391,118.391,60.000,-0.003,-0.001,-80.000,-80.000
-58.394,118.394,60.000,-0.003,-0.001,-80.000,-80.000
-58.398,118.398,60.000,-0.004,-0.002,-80.000,-80.000
-58.401,118.401,60.000,-0.004,-0.002,-80.000,-80.000
-58.405,118.405,60.000,-0.003,-0.001,-80.000,-80.000
-58.408,118.408,60.000,-0.004,-0.001,-80.000,-80.000
-58.412,118.412,60.000,-0.004,-0.002,-80.000,-80.000
-58.415,118.415,60.000,-0.003,-0.001,-80.000,-80.000
-58.419,118.419,60.000,-0.003,-0.000,-80.000,-80.000
-58.422,118.422,60.000,-0.004,-0.002,-80.000,-80.000
-58.426,118.426,60.000,-0.005,-0.002,-80.000,-80.000
-58.429,118.429,60.000,-0.004,-0.001,-80.000,-80.000
-58.433,118.433,60.000,-0.004,-0.001,-80.000,-80.000
-58.437,118.437,60.000,-0.004,-0.002,-80.000,-80.000
-58.440,118.440,60.000,-0.003,-0.002,-80.000,-80.000
-58.444,118.444,60.000,-0.003,-0.001,-80.000,-80.000
-58.447,118.447,60.000,-0.003,-0.001,-80.000,-80.000
-58.451,118.451,60.000,-0.004,-0.002,-80.000,-80.000
-58.454,118.454,60.000,-0.004,-0.001,-80.000,-80.000
-58.458,118.458,60.000,-0.004,-0.001,-80.000,-80.000
-58.461,118.461,60.000,-0.004,-0.002,-80.000,-80.000
-58.465,118.465,60.000,-0.004,-0.002,-80.000,-80.000
-58.468,118.468,60.000,-0.004,-0.001,-80.000,-80.000
-58.472,118.472,60.000,-0.004,-0.001,-80.000,-80.000
-58.475,118.475,60.000,-0.003,-0.002,-80.000,-80.000
-58.479,118.479,60.000,-0.004,-0.002,-80.000,-80.000
-58.482,118.483,60.000,-0.004,-0.001,-80.000,-80.000
-58.486,118.486,60.000,-0.004,-0.001,-80.000,-80.000
-58.490,118.490,60.000,-0.004,-0.002,-80.000,-80.000
-58.493,118.493,60.000,-0.003,-0.001,-80.000,-80.000
-58.497,118.497,60.000,-0.004,-0.001,-80.000,-80.000
-58.500,118.500,60.000,-0.004,-0.001,-80.000,-80.000
-58.504,118.504,60.000,-0.004,-0.002,-80.000,-80.000
-58.507,118.507,60.000,-0.004,-0.001,-80.000,-80.000
-58.511,118.511,60.000,-0.004,-0.001,-80.000,-80.000
-58.514,118.514,60.000,-0.004,-0.002,-80.000,-80.000
-58.518,118.518,60.000,-0.004,-0.002,-80.000,-80.000
-58.521,118.521,60.000,-0.003,-0.001,-80.000,-80.000
-58.525,118.525,60.000,-0.003,-0.001,-80.000,-80.000
-58.528,118.528,60.000,-0.003,-0.002,-80.000,-80.000
-58.532,118.532,60.000,-0.004,-0.001,-80.000,-80.000
-58.536,118.536,60.000,-0.004,-0.000,-80.000,-80.000
-58.539,118.539,60.000,-0.003,-0.001,-80.000,-80.000
-58.543,118.543,60.000,-0.004,-0.001,-80.000,-80.000
-58.546,118.546,60.000,-0.003,-0.001,-80.000,-80.000
-58.550,118.550,60.000,-0.004,-0.001,-80.000,-80.000
-58.553,118.553,60.000,-0.004,-0.002,-80.000,-80.000
-58.557,118.557,60.000,-0.003,-0.001,-80.000,-80.000
-58.560,118.560,60.000,-0.004,-0.001,-80.000,-80.000
-58.564,118.564,60.000,-0.004,-0.001,-80.000,-80.000
-58.567,118.567,60.000,-0.003,-0.002,-80.000,-80.000
-58.571,118.571,60.000,-0.004,-0.001,-80.000,-80.000
-58.574,118.574,60.000,-0.004,-0.000,-80.000,-80.000
-58.578,118.578,60.000,-0.004,-0.002,-80.000,-80.000
-58.581,118.582,60.000,-0.004,-0.002,-80.000,-80.000
-58.585,118.585,60.000,-0.003,-0.001,-80.000,-80.000
-58.589,118.589,60.000,-0.004,-0.001,-80.000,-80.000
-58.592,118.592,60.000,-0.004,-0.002,-80.000,-80.000
-58.596,118.596,60.000,-0.004,-0.001,-80.000,-80.000
-58.599,118.599,60.000,-0.004,-0.001,-80.000,-80.000
-58.603,118.603,60.000,-0.004,-0.001,-80.000,-80.000
-58.606,118.606,60.000,-0.004,-0.002,-80.000,-80.000
-58.610,118.610,60.000,-0.004,-0.001,-80.000,-80.000
-58.613,118.613,60.000,-0.004,-0.001,-80.000,-80.000
-58.617,118.617,60.000,-0.003,-0.001,-80.000,-80.000
-58.620,118.620,60.000,-0.004,-0.002,-80.000,-80.000
-58.624,118.624,60.000,-0.004,-0.001,-80.000,-80.000
-58.627,118.627,60.000,-0.003,-0.001,-80.000,-80.000
-58.631,118.631,60.000,-0.004,-0.002,-80.000,-80.000
-58.635,118.635,60.000,-0.003,-0.001,-80.000,-80.000
-58.638,118.638,60.000,-0.004,-0.001,-80.000,-80.000
-58.642,118.642,60.000,-0.004,-0.001,-80.000,-80.000
-58.645,118.645,60.000,-0.004,-0.002,-80.000,-80.000
-58.649,118.649,60.000,-0.004,-0.001,-80.000,-80.000
-58.652,118.652,60.000,-0.004,-0.001,-80.000,-80.000
-58.656,118.656,60.000,-0.004,-0.001,-80.000,-80.000
-58.659,118.659,60.000,-0.004,-0.002,-80.000,-80.000
-58.663,118.663,60.000,-0.004,-0.001,-80.000,-80.000
-58.666,118.666,60.000,-0.004,-0.001,-80.000,-80.000
-58.670,118.670,60.000,-0.004,-0.002,-80.000,-80.000
-58.673,118.673,60.000,-0.004,-0.001,-80.000,-80.000
-58.677,118.677,60.000,-0.004,-0.001,-80.000,-80.000
-58.681,118.681,60.000,-0.004,-0.001,-80.000,-80.000
-58.684,118.684,60.000,-0.004,-0.002,-80.000,-80.000
-58.688,118.688,60.000,-0.004,-0.002,-80.000,-80.000
-58.691,118.691,60.000,-0.004,-0.001,-80.000,-80.000
-58.695,118.695,60.000,-0.003,-0.001,-80.000,-80.000
-58.698,118.698,60.000,-0.004,-0.002,-80.000,-80.000
-58.702,118.702,60.000,-0.003,-0.001,-80.000,-80.000
-58.705,118.705,60.000,-0.004,-0.001,-80.000,-80.000
-58.709,118.709,60.000,-0.004,-0.002,-80.000,-80.000
-58.712,118.712,60.000,-0.004,-0.002,-80.000,-80.000
-58.716,118.716,60.000,-0.004,-0.001,-80.000,-80.000
-58.719,118.719,60.000,-0.004,-0.001,-80.000,-80.000
-58.723,118.723,60.000,-0.004,-0.002,-80.000,-80.000
-58.726,118.726,60.000,-0.003,-0.001,-80.000,-80.000
