tRemaining, tElapsed, tTotal, Current, Voltage, Temp1, Temp2, 
59.998,00.002,60.000,-0.005,00.000,-80.000,-80.000
59.995,00.005,60.000,-0.005,00.000,-80.000,-80.000
59.991,00.009,60.000,-0.005,-0.001,-80.000,-80.000
59.988,00.012,60.000,-0.006,-0.000,-80.000,-80.000
59.984,00.016,60.000,-0.005,00.001,-80.000,-80.000
59.981,00.019,60.000,-0.006,00.000,-80.000,-80.000
59.977,00.023,60.000,-0.005,-0.001,-80.000,-80.000
59.973,00.027,60.000,-0.005,-0.000,-80.000,-80.000
59.970,00.030,60.000,-0.005,00.001,-80.000,-80.000
59.966,00.034,60.000,-0.005,-0.001,-80.000,-80.000
59.963,00.037,60.000,-0.004,-0.001,-80.000,-80.000
59.959,00.041,60.000,-0.005,00.001,-80.000,-80.000
59.957,00.043,60.000,00.020,-0.004,-80.000,-80.000
