tRemaining, tElapsed, tTotal, Current, Voltage, Temp1, Temp2, 
59.997,00.003,60.000,00.001,00.001,-80.000,-80.000
59.994,00.006,60.000,00.002,00.002,-80.000,-80.000
59.990,00.010,60.000,00.001,00.001,-80.000,-80.000
59.987,00.013,60.000,00.001,00.000,-80.000,-80.000
59.983,00.017,60.000,00.001,00.002,-80.000,-80.000
59.980,00.020,60.000,00.001,00.002,-80.000,-80.000
59.976,00.024,60.000,00.001,00.001,-80.000,-80.000
59.973,00.027,60.000,00.002,00.000,-80.000,-80.000
59.969,00.031,60.000,00.001,00.002,-80.000,-80.000
59.966,00.034,60.000,00.001,00.002,-80.000,-80.000
59.962,00.038,60.000,00.001,00.001,-80.000,-80.000
59.958,00.042,60.000,00.001,00.001,-80.000,-80.000
59.955,00.045,60.000,00.001,00.002,-80.000,-80.000
59.951,00.049,60.000,00.001,00.002,-80.000,-80.000
59.948,00.052,60.000,00.001,00.000,-80.000,-80.000
59.944,00.056,60.000,00.001,00.001,-80.000,-80.000
59.941,00.059,60.000,00.001,00.002,-80.000,-80.000
59.937,00.063,60.000,00.001,00.002,-80.000,-80.000
59.934,00.066,60.000,00.000,00.000,-80.000,-80.000
59.930,00.070,60.000,00.000,00.001,-80.000,-80.000
59.927,00.073,60.000,00.000,00.002,-80.000,-80.000
59.923,00.077,60.000,00.001,00.001,-80.000,-80.000
59.920,00.080,60.000,00.001,-0.000,-80.000,-80.000
59.916,00.084,60.000,00.001,00.002,-80.000,-80.000
59.913,00.087,60.000,00.001,00.002,-80.000,-80.000
59.909,00.091,60.000,00.000,00.001,-80.000,-80.000
59.905,00.095,60.000,00.001,00.000,-80.000,-80.000
59.902,00.098,60.000,00.001,00.002,-80.000,-80.000
59.898,00.102,60.000,00.001,00.002,-80.000,-80.000
59.895,00.105,60.000,00.001,00.000,-80.000,-80.000
59.891,00.109,60.000,00.001,00.001,-80.000,-80.000
59.888,00.112,60.000,00.002,00.002,-80.000,-80.000
59.884,00.116,60.000,00.000,00.001,-80.000,-80.000
59.881,00.119,60.000,00.001,-0.000,-80.000,-80.000
59.877,00.123,60.000,00.002,00.001,-80.000,-80.000
59.874,00.126,60.000,00.001,00.002,-80.000,-80.000
59.870,00.130,60.000,00.001,00.001,-80.000,-80.000
59.867,00.133,60.000,00.001,-0.000,-80.000,-80.000
59.863,00.137,60.000,00.001,00.001,-80.000,-80.000
59.859,00.141,60.000,00.001,00.002,-80.000,-80.000
59.856,00.144,60.000,00.001,00.000,-80.000,-80.000
59.852,00.148,60.000,00.001,00.000,-80.000,-80.000
59.849,00.151,60.000,00.001,00.002,-80.000,-80.000
59.845,00.155,60.000,00.001,00.002,-80.000,-80.000
59.842,00.158,60.000,00.000,00.001,-80.000,-80.000
59.838,00.162,60.000,00.001,00.000,-80.000,-80.000
59.835,00.165,60.000,00.001,00.002,-80.000,-80.000
59.831,00.169,60.000,00.001,00.002,-80.000,-80.000
59.828,00.172,60.000,00.001,00.000,-80.000,-80.000
59.824,00.176,60.000,00.000,00.001,-80.000,-80.000
59.821,00.179,60.000,00.002,00.002,-80.000,-80.000
59.817,00.183,60.000,00.001,00.001,-80.000,-80.000
59.813,00.187,60.000,00.001,-0.000,-80.000,-80.000
59.810,00.190,60.000,00.000,00.001,-80.000,-80.000
59.806,00.194,60.000,00.001,00.002,-80.000,-80.000
59.803,00.197,60.000,00.002,00.001,-80.000,-80.000
59.799,00.201,60.000,00.001,-0.000,-80.000,-80.000
59.796,00.204,60.000,00.001,00.002,-80.000,-80.000
59.792,00.208,60.000,00.001,00.002,-80.000,-80.000
59.789,00.211,60.000,00.001,00.001,-80.000,-80.000
59.785,00.215,60.000,00.001,00.000,-80.000,-80.000
59.782,00.218,60.000,00.001,00.002,-80.000,-80.000
59.778,00.222,60.000,00.002,00.002,-80.000,-80.000
59.775,00.225,60.000,00.001,00.001,-80.000,-80.000
59.771,00.229,60.000,00.001,00.000,-80.000,-80.000
59.768,00.232,60.000,00.001,00.002,-80.000,-80.000
59.764,00.236,60.000,00.001,00.002,-80.000,-80.000
59.760,00.240,60.000,00.001,00.000,-80.000,-80.000
59.757,00.243,60.000,00.001,00.001,-80.000,-80.000
59.753,00.247,60.000,00.001,00.002,-80.000,-80.000
59.750,00.250,60.000,00.001,00.002,-80.000,-80.000
59.746,00.254,60.000,00.000,00.000,-80.000,-80.000
59.743,00.257,60.000,00.001,00.001,-80.000,-80.000
59.739,00.261,60.000,00.001,00.002,-80.000,-80.000
59.736,00.264,60.000,00.001,00.001,-80.000,-80.000
59.732,00.268,60.000,00.001,-0.000,-80.000,-80.000
59.729,00.271,60.000,00.002,00.001,-80.000,-80.000
59.725,00.275,60.000,00.001,00.002,-80.000,-80.000
59.722,00.278,60.000,00.001,00.001,-80.000,-80.000
59.718,00.282,60.000,00.001,00.000,-80.000,-80.000
59.714,00.286,60.000,00.001,00.002,-80.000,-80.000
59.711,00.289,60.000,00.002,00.002,-80.000,-80.000
59.707,00.293,60.000,00.000,00.000,-80.000,-80.000
59.704,00.296,60.000,00.001,00.000,-80.000,-80.000
59.700,00.300,60.000,00.001,00.002,-80.000,-80.000
59.697,00.303,60.000,00.001,00.002,-80.000,-80.000
59.693,00.307,60.000,00.001,00.000,-80.000,-80.000
59.690,00.310,60.000,00.002,00.001,-80.000,-80.000
59.686,00.314,60.000,00.001,00.002,-80.000,-80.000
59.683,00.317,60.000,00.001,00.002,-80.000,-80.000
59.679,00.321,60.000,00.000,00.000,-80.000,-80.000
59.676,00.324,60.000,00.001,00.001,-80.000,-80.000
59.672,00.328,60.000,00.001,00.003,-80.000,-80.000
59.669,00.331,60.000,00.001,00.001,-80.000,-80.000
59.665,00.335,60.000,00.001,-0.000,-80.000,-80.000
59.661,00.339,60.000,00.001,00.002,-80.000,-80.000
59.658,00.342,60.000,00.001,00.003,-80.000,-80.000
59.654,00.346,60.000,00.001,00.001,-80.000,-80.000
59.651,00.349,60.000,00.001,00.000,-80.000,-80.000
59.647,00.353,60.000,00.001,00.002,-80.000,-80.000
59.644,00.356,60.000,00.002,00.002,-80.000,-80.000
59.640,00.360,60.000,00.001,00.000,-80.000,-80.000
59.637,00.363,60.000,00.001,00.001,-80.000,-80.000
59.633,00.367,60.000,00.000,00.002,-80.000,-80.000
59.630,00.370,60.000,00.002,00.002,-80.000,-80.000
59.626,00.374,60.000,00.002,00.000,-80.000,-80.000
59.623,00.377,60.000,00.000,00.001,-80.000,-80.000
59.619,00.381,60.000,00.001,00.003,-80.000,-80.000
59.615,00.385,60.000,00.002,00.001,-80.000,-80.000
59.612,00.388,60.000,00.002,00.000,-80.000,-80.000
59.608,00.392,60.000,00.001,00.001,-80.000,-80.000
59.605,00.395,60.000,00.001,00.002,-80.000,-80.000
59.601,00.399,60.000,00.001,00.001,-80.000,-80.000
59.598,00.402,60.000,00.001,00.000,-80.000,-80.000
59.594,00.406,60.000,00.001,00.002,-80.000,-80.000
59.591,00.409,60.000,00.001,00.003,-80.000,-80.000
59.587,00.413,60.000,00.001,00.001,-80.000,-80.000
59.584,00.416,60.000,00.001,00.000,-80.000,-80.000
59.580,00.420,60.000,00.001,00.002,-80.000,-80.000
59.577,00.423,60.000,00.001,00.002,-80.000,-80.000
59.573,00.427,60.000,00.001,00.001,-80.000,-80.000
59.570,00.430,60.000,00.000,00.001,-80.000,-80.000
59.566,00.434,60.000,00.001,00.002,-80.000,-80.000
59.562,00.438,60.000,00.001,00.002,-80.000,-80.000
59.559,00.441,60.000,00.001,00.000,-80.000,-80.000
59.555,00.445,60.000,00.001,00.001,-80.000,-80.000
59.552,00.448,60.000,00.002,00.002,-80.000,-80.000
59.548,00.452,60.000,00.001,00.001,-80.000,-80.000
59.545,00.455,60.000,00.000,00.000,-80.000,-80.000
59.541,00.459,60.000,00.001,00.002,-80.000,-80.000
59.538,00.462,60.000,00.000,00.003,-80.000,-80.000
59.534,00.466,60.000,00.001,00.001,-80.000,-80.000
59.531,00.469,60.000,00.002,-0.000,-80.000,-80.000
59.527,00.473,60.000,00.002,00.002,-80.000,-80.000
59.524,00.476,60.000,00.001,00.002,-80.000,-80.000
59.520,00.480,60.000,00.001,00.000,-80.000,-80.000
59.516,00.484,60.000,00.001,00.001,-80.000,-80.000
59.513,00.487,60.000,00.001,00.002,-80.000,-80.000
59.509,00.491,60.000,00.001,00.002,-80.000,-80.000
59.506,00.494,60.000,00.001,00.000,-80.000,-80.000
59.502,00.498,60.000,00.001,00.001,-80.000,-80.000
59.499,00.501,60.000,00.001,00.002,-80.000,-80.000
59.495,00.505,60.000,00.001,00.002,-80.000,-80.000
59.492,00.508,60.000,00.001,00.000,-80.000,-80.000
59.488,00.512,60.000,00.001,00.001,-80.000,-80.000
59.485,00.515,60.000,00.001,00.002,-80.000,-80.000
59.481,00.519,60.000,00.001,00.001,-80.000,-80.000
59.478,00.522,60.000,00.001,00.000,-80.000,-80.000
59.474,00.526,60.000,00.000,00.001,-80.000,-80.000
59.471,00.529,60.000,00.001,00.002,-80.000,-80.000
59.467,00.533,60.000,00.002,00.000,-80.000,-80.000
59.463,00.537,60.000,00.001,00.000,-80.000,-80.000
59.460,00.540,60.000,00.001,00.002,-80.000,-80.000
59.456,00.544,60.000,00.001,00.002,-80.000,-80.000
59.453,00.547,60.000,00.002,00.001,-80.000,-80.000
59.449,00.551,60.000,00.001,00.001,-80.000,-80.000
59.446,00.554,60.000,00.001,00.002,-80.000,-80.000
59.442,00.558,60.000,00.001,00.002,-80.000,-80.000
59.439,00.561,60.000,00.001,00.000,-80.000,-80.000
59.435,00.565,60.000