tRemaining, tElapsed, tTotal, Current, Voltage, Temp1, Temp2, 
59.998,00.002,60.000,-0.000,00.007,-80.000,-80.000
59.994,00.006,60.000,00.000,-0.013,-80.000,-80.000
59.991,00.009,60.000,-0.001,-0.006,-80.000,-80.000
59.987,00.013,60.000,-0.000,00.014,-80.000,-80.000
