tRemaining, tElapsed, tTotal, Current, Voltage, Temp1, Temp2, 
60.000,00.000,60.000,00.000,-0.001,-80.000,-80.000
59.996,00.004,60.000,00.001,-0.002,-80.000,-80.000
59.992,00.008,60.000,-0.001,-0.002,-80.000,-80.000
59.989,00.011,60.000,00.000,-0.001,-80.000,-80.000
59.985,00.015,60.000,-0.000,-0.002,-80.000,-80.000
