tRemaining, tElapsed, tTotal, Current, Voltage, Temp1, Temp2, 
59.998,00.002,60.000,-0.003,-0.001,-80.000,-80.000
59.995,00.005,60.000,-0.002,00.000,-80.000,-80.000
59.991,00.009,60.000,-0.003,-0.002,-80.000,-80.000
59.988,00.012,60.000,-0.002,-0.003,-80.000,-80.000
59.984,00.016,60.000,-0.002,-0.001,-80.000,-80.000
59.981,00.019,60.000,-0.003,-0.000,-80.000,-80.000
