tRemaining, tElapsed, tTotal, Current, Voltage, Temp1, Temp2, 
7379.999,00.001,7380.000,00.000,-0.018,-80.000,-80.000
7379.996,00.004,7380.000,-0.000,-0.012,-80.000,-80.000
7379.992,00.008,7380.000,-0.000,00.016,-80.000,-80.000
7379.989,00.011,7380.000,-0.001,00.005,-80.000,-80.000
7379.985,00.015,7380.000,-0.000,-0.022,-80.000,-80.000
7379.981,00.019,7380.000,00.000,-0.002,-80.000,-80.000
7379.978,00.022,7380.000,-0.000,00.017,-80.000,-80.000
7379.974,00.026,7380.000,00.000,-0.005,-80.000,-80.000
7379.971,00.029,7380.000,-0.002,-0.021,-80.000,-80.000
7379.967,00.033,7380.000,-0.000,00.008,-80.000,-80.000
7379.964,00.036,7380.000,-0.000,00.016,-80.000,-80.000
7379.960,00.040,7380.000,-0.001,-0.016,-80.000,-80.000
7379.957,00.043,7380.000,-0.000,-0.015,-80.000,-80.000
7379.953,00.047,7380.000,00.000,00.014,-80.000,-80.000
7379.950,00.050,7380.000,-0.000,00.008,-80.000,-80.000
7379.946,00.054,7380.000,-0.000,-0.020,-80.000,-80.000
7379.943,00.057,7380.000,-0.000,-0.005,-80.000,-80.000
7379.939,00.061,7380.000,00.000,00.017,-80.000,-80.000
7379.935,00.065,7380.000,00.001,-0.002,-80.000,-80.000
7379.932,00.068,7380.000,00.000,-0.021,-80.000,-80.000
7379.928,00.072,7380.000,-0.000,00.005,-80.000,-80.000
7379.925,00.075,7380.000,00.000,00.016,-80.000,-80.000
7379.921,00.079,7380.000,-0.000,-0.012,-80.000,-80.000
7379.918,00.082,7380.000,-0.000,-0.016,-80.000,-80.000
7379.914,00.086,7380.000,-0.000,00.013,-80.000,-80.000
7379.911,00.089,7380.000,00.000,00.010,-80.000,-80.000
7379.907,00.093,7380.000,-0.000,-0.019,-80.000,-80.000
7379.904,00.096,7380.000,-0.000,-0.008,-80.000,-80.000
7379.900,00.100,7380.000,-0.000,00.017,-80.000,-80.000
7379.897,00.103,7380.000,-0.001,00.000,-80.000,-80.000
7379.893,00.107,7380.000,-0.000,-0.021,-80.000,-80.000
7379.889,00.111,7380.000,-0.000,00.002,-80.000,-80.000
7379.886,00.114,7380.000,-0.000,00.018,-80.000,-80.000
7379.882,00.118,7380.000,00.000,-0.011,-80.000,-80.000
7379.879,00.121,7380.000,-0.000,-0.020,-80.000,-80.000
7379.875,00.125,7380.000,-0.000,00.013,-80.000,-80.000
7379.872,00.128,7380.000,-0.000,00.014,-80.000,-80.000
7379.868,00.132,7380.000,-0.000,-0.020,-80.000,-80.000
