tRemaining, tElapsed, tTotal, Current, Voltage, Temp1, Temp2, 
60.000,00.000,60.000,-0.003,-0.001,-80.000,-80.000
59.996,00.004,60.000,-0.003,-0.002,-80.000,-80.000
59.992,00.008,60.000,-0.003,-0.003,-80.000,-80.000
59.989,00.011,60.000,-0.003,-0.002,-80.000,-80.000
59.985,00.015,60.000,-0.003,-0.000,-80.000,-80.000
59.982,00.018,60.000,-0.003,-0.002,-80.000,-80.000
59.978,00.022,60.000,-0.004,-0.003,-80.000,-80.000
59.975,00.025,60.000,-0.003,-0.001,-80.000,-80.000
59.971,00.029,60.000,-0.003,-0.001,-80.000,-80.000
59.968,00.032,60.000,-0.003,-0.002,-80.000,-80.000
59.964,00.036,60.000,-0.003,-0.002,-80.000,-80.000
59.961,00.039,60.000,-0.003,-0.001,-80.000,-80.000
59.957,00.043,60.000,-0.003,-0.002,-80.000,-80.000
59.954,00.046,60.000,-0.003,-0.003,-80.000,-80.000
59.950,00.050,60.000,-0.003,-0.002,-80.000,-80.000
59.947,00.053,60.000,-0.003,-0.000,-80.000,-80.000
59.943,00.057,60.000,-0.003,-0.002,-80.000,-80.000
59.939,00.061,60.000,-0.003,-0.003,-80.000,-80.000
59.936,00.064,60.000,-0.003,-0.001,-80.000,-80.000
59.932,00.068,60.000,-0.003,-0.001,-80.000,-80.000
59.929,00.071,60.000,-0.003,-0.003,-80.000,-80.000
59.925,00.075,60.000,-0.003,-0.002,-80.000,-80.000
59.922,00.078,60.000,-0.003,-0.001,-80.000,-80.000
59.918,00.082,60.000,-0.003,-0.002,-80.000,-80.000
59.915,00.085,60.000,-0.004,-0.003,-80.000,-80.000
59.911,00.089,60.000,-0.003,-0.002,-80.000,-80.000
59.908,00.092,60.000,-0.003,-0.003,-80.000,-80.000
59.904,00.096,60.000,-0.004,-0.002,-80.000,-80.000
59.901,00.099,60.000,-0.003,-0.003,-80.000,-80.000
59.897,00.103,60.000,-0.003,-0.001,-80.000,-80.000
59.894,00.106,60.000,-0.003,-0.001,-80.000,-80.000
59.890,00.110,60.000,-0.003,-0.003,-80.000,-80.000
59.886,00.114,60.000,-0.004,-0.002,-80.000,-80.000
59.883,00.117,60.000,-0.003,-0.001,-80.000,-80.000
59.879,00.121,60.000,-0.003,-0.002,-80.000,-80.000
59.876,00.124,60.000,-0.002,-0.003,-80.000,-80.000
59.872,00.128,60.000,-0.003,-0.002,-80.000,-80.000
59.869,00.131,60.000,-0.003,-0.001,-80.000,-80.000
59.865,00.135,60.000,-0.004,-0.002,-80.000,-80.000
59.862,00.138,60.000,-0.003,-0.003,-80.000,-80.000
59.858,00.142,60.000,-0.003,-0.001,-80.000,-80.000
59.855,00.145,60.000,-0.003,-0.001,-80.000,-80.000
59.851,00.149,60.000,-0.003,-0.003,-80.000,-80.000
59.848,00.152,60.000,-0.003,-0.003,-80.000,-80.000
59.844,00.156,60.000,-0.004,-0.001,-80.000,-80.000
59.840,00.160,60.000,-0.003,-0.002,-80.000,-80.000
59.837,00.163,60.000,-0.003,-0.003,-80.000,-80.000
59.833,00.167,60.000,-0.003,-0.002,-80.000,-80.000
59.830,00.170,60.000,-0.003,-0.001,-80.000,-80.000
59.826,00.174,60.000,-0.003,-0.002,-80.000,-80.000
59.823,00.177,60.000,-0.004,-0.003,-80.000,-80.000
59.819,00.181,60.000,-0.003,-0.001,-80.000,-80.000
59.816,00.184,60.000,-0.003,-0.001,-80.000,-80.000
59.812,00.188,60.000,-0.003,-0.003,-80.000,-80.000
59.809,00.191,60.000,-0.004,-0.003,-80.000,-80.000
59.805,00.195,60.000,-0.003,-0.001,-80.000,-80.000
59.802,00.198,60.000,-0.003,-0.002,-80.000,-80.000
59.798,00.202,60.000,-0.003,-0.003,-80.000,-80.000
59.794,00.205,60.000,-0.003,-0.002,-80.000,-80.000
59.791,00.209,60.000,-0.002,-0.001,-80.000,-80.000
59.787,00.213,60.000,-0.002,-0.002,-80.000,-80.000
59.784,00.216,60.000,-0.003,-0.003,-80.000,-80.000
59.780,00.220,60.000,-0.003,-0.001,-80.000,-80.000
59.777,00.223,60.000,-0.002,-0.001,-80.000,-80.000
59.773,00.227,60.000,-0.003,-0.003,-80.000,-80.000
59.770,00.230,60.000,-0.003,-0.002,-80.000,-80.000
59.766,00.234,60.000,-0.003,-0.001,-80.000,-80.000
59.763,00.237,60.000,-0.003,-0.002,-80.000,-80.000
59.759,00.241,60.000,-0.003,-0.003,-80.000,-80.000
59.756,00.244,60.000,-0.003,-0.002,-80.000,-80.000
59.752,00.248,60.000,-0.003,-0.001,-80.000,-80.000
59.749,00.251,60.000,-0.003,-0.003,-80.000,-80.000
59.745,00.255,60.000,-0.003,-0.002,-80.000,-80.000
59.741,00.259,60.000,-0.004,-0.001,-80.000,-80.000
59.738,00.262,60.000,-0.003,-0.001,-80.000,-80.000
59.734,00.266,60.000,-0.003,-0.003,-80.000,-80.000
59.731,00.269,60.000,-0.003,-0.002,-80.000,-80.000
59.727,00.273,60.000,-0.003,-0.001,-80.000,-80.000
59.724,00.276,60.000,-0.003,-0.002,-80.000,-80.000
59.720,00.280,60.000,-0.003,-0.003,-80.000,-80.000
59.717,00.283,60.000,-0.003,-0.001,-80.000,-80.000
59.713,00.287,60.000,-0.003,-0.001,-80.000,-80.000
59.710,00.290,60.000,-0.003,-0.003,-80.000,-80.000
59.706,00.294,60.000,-0.003,-0.002,-80.000,-80.000
59.703,00.297,60.000,-0.003,-0.001,-80.000,-80.000
59.699,00.301,60.000,-0.003,-0.002,-80.000,-80.000
59.696,00.304,60.000,-0.004,-0.003,-80.000,-80.000
59.692,00.308,60.000,-0.003,-0.002,-80.000,-80.000
59.688,00.312,60.000,-0.003,-0.001,-80.000,-80.000
59.685,00.315,60.000,-0.004,-0.003,-80.000,-80.000
59.681,00.319,60.000,-0.003,-0.003,-80.000,-80.000
59.678,00.322,60.000,-0.003,-0.001,-80.000,-80.000
59.674,00.326,60.000,-0.004,-0.001,-80.000,-80.000
59.671,00.329,60.000,-0.003,-0.003,-80.000,-80.000
59.667,00.333,60.000,-0.003,-0.002,-80.000,-80.000
59.664,00.336,60.000,-0.004,-0.001,-80.000,-80.000
59.660,00.340,60.000,-0.003,-0.002,-80.000,-80.000
59.657,00.343,60.000,-0.003,-0.003,-80.000,-80.000
59.653,00.347,60.000,-0.003,-0.002,-80.000,-80.000
59.650,00.350,60.000,-0.003,-0.001,-80.000,-80.000
59.646,00.354,60.000,-0.004,-0.002,-80.000,-80.000
59.642,00.358,60.000,-0.003,-0.003,-80.000,-80.000
59.639,00.361,60.000,-0.003,-0.001,-80.000,-80.000
59.635,00.365,60.000,-0.003,-0.001,-80.000,-80.000
59.632,00.368,60.000,-0.003,-0.003,-80.000,-80.000
59.628,00.372,60.000,-0.003,-0.002,-80.000,-80.000
59.625,00.375,60.000,-0.004,-0.001,-80.000,-80.000
59.621,00.379,60.000,-0.003,-0.002,-80.000,-80.000
59.618,00.382,60.000,-0.004,-0.003,-80.000,-80.000
59.614,00.386,60.000,-0.004,-0.001,-80.000,-80.000
59.611,00.389,60.000,-0.003,-0.001,-80.000,-80.000
59.607,00.393,60.000,-0.003,-0.003,-80.000,-80.000
59.604,00.396,60.000,-0.004,-0.003,-80.000,-80.000
59.600,00.400,60.000,-0.003,-0.001,-80.000,-80.000
59.597,00.403,60.000,-0.003,-0.002,-80.000,-80.000
59.593,00.407,60.000,-0.003,-0.003,-80.000,-80.000
59.589,00.411,60.000,-0.003,-0.002,-80.000,-80.000
59.586,00.414,60.000,-0.002,-0.001,-80.000,-80.000
59.582,00.418,60.000,-0.003,-0.002,-80.000,-80.000
59.579,00.421,60.000,-0.003,-0.003,-80.000,-80.000
59.575,00.425,60.000,-0.003,-0.001,-80.000,-80.000
59.572,00.428,60.000,-0.003,-0.001,-80.000,-80.000
59.568,00.432,60.000,-0.004,-0.003,-80.000,-80.000
59.565,00.435,60.000,-0.003,-0.001,-80.000,-80.000
59.561,00.439,60.000,-0.003,-0.001,-80.000,-80.000
59.558,00.442,60.000,-0.004,-0.002,-80.000,-80.000
59.554,00.446,60.000,-0.003,-0.003,-80.000,-80.000
59.551,00.449,60.000,-0.003,-0.002,-80.000,-80.000
59.547,00.453,60.000,-0.003,-0.001,-80.000,-80.000
59.543,00.457,60.000,-0.004,-0.002,-80.000,-80.000
59.540,00.460,60.000,-0.003,-0.003,-80.000,-80.000
59.536,00.464,60.000,-0.003,-0.001,-80.000,-80.000
59.533,00.467,60.000,-0.003,-0.001,-80.000,-80.000
59.529,00.471,60.000,-0.003,-0.002,-80.000,-80.000
59.526,00.474,60.000,-0.003,-0.002,-80.000,-80.000
59.522,00.478,60.000,-0.003,-0.002,-80.000,-80.000
59.519,00.481,60.000,-0.003,-0.006,-80.000,-80.000
59.515,00.485,60.000,-0.003,-0.002,-80.000,-80.000
59.512,00.488,60.000,-0.004,-0.001,-80.000,-80.000
59.508,00.492,60.000,-0.003,00.000,-80.000,-80.000
59.505,00.495,60.000,-0.004,-0.004,-80.000,-80.000
59.501,00.499,60.000,-0.003,-0.002,-80.000,-80.000
59.497,00.502,60.000,-0.003,-0.002,-80.000,-80.000
59.494,00.506,60.000,-0.003,-0.000,-80.000,-80.000
59.490,00.510,60.000,-0.003,-0.004,-80.000,-80.000
59.487,00.513,60.000,-0.002,-0.002,-80.000,-80.000
59.483,00.517,60.000,-0.004,00.000,-80.000,-80.000
59.480,00.520,60.000,-0.003,-0.003,-80.000,-80.000
59.476,00.524,60.000,-0.002,-0.004,-80.000,-80.000
59.473,00.527,60.000,-0.003,00.000,-80.000,-80.000
59.469,00.531,60.000,-0.003,-0.000,-80.000,-80.000
59.466,00.534,60.000,-0.004,-0.005,-80.000,-80.000
59.462,00.538,60.000,-0.003,-0.002,-80.000,-80.000
59.459,00.541,60.000,-0.004,00.001,-80.000,-80.000
59.455,00.545,60.000,-0.003,-0.003,-80.000,-80.000
59.452,00.548,60.000,-0.003,-0.007,-80.000,-80.000
59.448,00.552,60.000,-0.004,00.001,-80.000,-80.000
59.444,00.556,60.000,-0.003,-0.000,-80.000,-80.000
59.441,00.559,60.000,-0.003,-0.004,-80.000,-80.000
59.437,00.563,60.000,-0.003,-0.003,-80.000,-80.000
59.434,00.566,60.000,-0.003,00.000,-80.000,-80.000
59.430,00.570,60.000,-0.003,-0.002,-80.000,-80.000
59.427,00.573,60.000,-0.003,-0.006,-80.000,-80.000
59.423,00.577,60.000,-0.003,-0.001,-80.000,-80.000
59.420,00.580,60.000,-0.003,00.002,-80.000,-80.000
59.416,00.584,60.000,-0.003,-0.004,-80.000,-80.000
59.413,00.587,60.000,-0.003,-0.005,-80.000,-80.000
59.409,00.591,60.000,-0.003,00.001,-80.000,-80.000
59.406,00.594,60.000,-0.003,00.000,-80.000,-80.000
59.402,00.598,60.000,-0.004,-0.005,-80.000,-80.000
59.399,00.601,60.000,-0.003,-0.002,-80.000,-80.000
59.395,00.605,60.000,-0.003,00.001,-80.000,-80.000
59.391,00.609,60.000,-0.003,-0.002,-80.000,-80.000
59.388,00.612,60.000,-0.003,-0.005,-80.000,-80.000
59.384,00.616,60.000,-0.003,-0.001,-80.000,-80.000
59.381,00.619,60.000,-0.002,00.000,-80.000,-80.000
59.377,00.623,60.000,-0.003,-0.004,-80.000,-80.000
59.374,00.626,60.000,-0.002,-0.004,-80.000,-80.000
59.370,00.630,60.000,-0.003,00.001,-80.000,-80.000
59.367,00.633,60.000,-0.003,-0.001,-80.000,-80.000
59.363,00.637,60.000,-0.002,-0.005,-80.000,-80.000
59.360,00.640,60.000,-0.003,-0.002,-80.000,-80.000
59.356,00.644,60.000,-0.004,00.001,-80.000,-80.000
59.353,00.647,60.000,-0.003,-0.003,-80.000,-80.000
59.349,00.651,60.000,-0.004,-0.005,-80.000,-80.000
59.346,00.655,60.000,-0.003,00.000,-80.000,-80.000
59.342,00.658,60.000,-0.003,-0.000,-80.000,-80.000
59.338,00.662,60.000,-0.003,-0.004,-80.000,-80.000
59.335,00.665,60.000,-0.004,-0.003,-80.000,-80.000
59.331,00.669,60.000,-0.003,00.001,-80.000,-80.000
59.328,00.672,60.000,-0.003,-0.002,-80.000,-80.000
59.324,00.676,60.000,-0.003,-0.005,-80.000,-80.000
59.321,00.679,60.000,-0.002,-0.001,-80.000,-80.000
59.317,00.683,60.000,-0.002,00.001,-80.000,-80.000
59.314,00.686,60.000,-0.003,-0.003,-80.000,-80.000
59.310,00.690,60.000,-0.003,-0.004,-80.000,-80.000
59.307,00.693,60.000,-0.002,-0.000,-80.000,-80.000
59.303,00.697,60.000,-0.003,-0.000,-80.000,-80.000
59.300,00.700,60.000,-0.003,-0.004,-80.000,-80.000
59.296,00.704,60.000,-0.003,-0.002,-80.000,-80.000
59.292,00.708,60.000,-0.003,00.001,-80.000,-80.000
59.289,00.711,60.000,-0.002,-0.002,-80.000,-80.000
59.285,00.715,60.000,-0.003,-0.005,-80.000,-80.000
59.282,00.718,60.000,-0.003,-0.000,-80.000,-80.000
59.278,00.722,60.000,-0.003,00.000,-80.000,-80.000
59.275,00.725,60.000,-0.003,-0.004,-80.000,-80.000
59.271,00.729,60.000,-0.003,-0.004,-80.000,-80.000
59.268,00.732,60.000,-0.003,00.002,-80.000,-80.000
59.264,00.736,60.000,-0.003,-0.001,-80.000,-80.000
59.261,00.739,60.000,-0.003,-0.005,-80.000,-80.000
59.257,00.743,60.000,-0.004,-0.002,-80.000,-80.000
59.254,00.746,60.000,-0.003,00.001,-80.000,-80.000
59.250,00.750,60.000,-0.003,-0.003,-80.000,-80.000
59.246,00.754,60.000,-0.003,-0.005,-80.000,-80.000
59.243,00.757,60.000,-0.004,00.001,-80.000,-80.000
59.239,00.761,60.000,-0.003,00.000,-80.000,-80.000
59.236,00.764,60.000,-0.003,-0.005,-80.000,-80.000
59.232,00.768,60.000,-0.003,-0.003,-80.000,-80.000
59.229,00.771,60.000,-0.003,00.002,-80.000,-80.000
59.225,00.775,60.000,-0.003,-0.001,-80.000,-80.000
59.222,00.778,60.000,-0.002,-0.005,-80.000,-80.000
59.218,00.782,60.000,-0.003,-0.001,-80.000,-80.000
59.215,00.785,60.000,-0.004,00.002,-80.000,-80.000
59.211,00.789,60.000,-0.003,-0.004,-80.000,-80.000
59.208,00.792,60.000,-0.003,-0.005,-80.000,-80.000
59.204,00.796,60.000,-0.003,00.001,-80.000,-80.000
59.201,00.799,60.000,-0.003,00.000,-80.000,-80.000
59.197,00.803,60.000,-0.003,-0.006,-80.000,-80.000
59.193,00.807,60.000,-0.003,-0.003,-80.000,-80.000
59.190,00.810,60.000,-0.003,00.002,-80.000,-80.000
59.186,00.814,60.000,-0.003,-0.002,-80.000,-80.000
59.183,00.817,60.000,-0.003,-0.006,-80.000,-80.000
59.179,00.821,60.000,-0.003,-0.001,-80.000,-80.000
59.176,00.824,60.000,-0.003,00.001,-80.000,-80.000
59.172,00.828,60.000,-0.002,-0.004,-80.000,-80.000
59.169,00.831,60.000,-0.003,-0.005,-80.000,-80.000
59.165,00.835,60.000,-0.003,00.001,-80.000,-80.000
59.162,00.838,60.000,-0.003,-0.000,-80.000,-80.000
59.158,00.842,60.000,-0.004,-0.006,-80.000,-80.000
59.155,00.845,60.000,-0.003,-0.002,-80.000,-80.000
59.151,00.849,60.000,-0.002,00.002,-80.000,-80.000
59.148,00.852,60.000,-0.002,-0.002,-80.000,-80.000
59.144,00.856,60.000,-0.002,-0.006,-80.000,-80.000
59.140,00.860,60.000,-0.003,-0.000,-80.000,-80.000
59.137,00.863,60.000,-0.003,00.001,-80.000,-80.000
59.133,00.867,60.000,-0.003,-0.005,-80.000,-80.000
59.130,00.870,60.000,-0.003,-0.004,-80.000,-80.000
59.126,00.874,60.000,-0.003,00.001,-80.000,-80.000
59.123,00.877,60.000,-0.003,-0.000,-80.000,-80.000
59.119,00.881,60.000,-0.002,-0.006,-80.000,-80.000
59.116,00.884,60.000,-0.002,-0.002,-80.000,-80.000
59.112,00.888,60.000,-0.003,00.002,-80.000,-80.000
59.109,00.891,60.000,-0.003,-0.003,-80.000,-80.000
59.105,00.895,60.000,-0.003,-0.005,-80.000,-80.000
59.102,00.898,60.000,-0.003,-0.000,-80.000,-80.000
59.098,00.902,60.000,-0.002,00.001,-80.000,-80.000
59.094,00.906,60.000,-0.002,-0.005,-80.000,-80.000
59.091,00.909,60.000,-0.003,-0.004,-80.000,-80.000
59.087,00.913,60.000,-0.003,00.001,-80.000,-80.000
59.084,00.916,60.000,-0.003,-0.001,-80.000,-80.000
59.080,00.920,60.000,-0.003,-0.005,-80.000,-80.000
59.077,00.923,60.000,-0.003,-0.002,-80.000,-80.000
59.073,00.927,60.000,-0.003,00.002,-80.000,-80.000
59.070,00.930,60.000,-0.002,-0.002,-80.000,-80.000
59.066,00.934,60.000,-0.002,-0.005,-80.000,-80.000
59.063,00.937,60.000,-0.002,00.000,-80.000,-80.000
59.059,00.941,60.000,-0.002,00.001,-80.000,-80.000
59.056,00.944,60.000,-0.002,-0.005,-80.000,-80.000
59.052,00.948,60.000,-0.003,-0.003,-80.000,-80.000
59.048,00.952,60.000,-0.002,00.001,-80.000,-80.000
59.045,00.955,60.000,-0.003,-0.001,-80.000,-80.000
59.041,00.959,60.000,-0.002,-0.005,-80.000,-80.000
59.038,00.962,60.000,-0.002,-0.002,-80.000,-80.000
59.034,00.966,60.000,-0.003,00.002,-80.000,-80.000
59.031,00.969,60.000,-0.002,-0.002,-80.000,-80.000
59.027,00.973,60.000,-0.003,-0.005,-80.000,-80.000
59.024,00.976,60.000,-0.002,-0.000,-80.000,-80.000
59.020,00.980,60.000,-0.003,00.001,-80.000,-80.000
59.017,00.983,60.000,-0.002,-0.004,-80.000,-80.000
59.013,00.987,60.000,-0.003,-0.004,-80.000,-80.000
59.010,00.990,60.000,-0.003,00.001,-80.000,-80.000
59.006,00.994,60.000,-0.003,-0.001,-80.000,-80.000
59.003,00.997,60.000,-0.003,-0.005,-80.000,-80.000
58.999,01.001,60.000,-0.002,-0.002,-80.000,-80.000
58.995,01.005,60.000,-0.003,00.002,-80.000,-80.000
58.992,01.008,60.000,-0.003,-0.003,-80.000,-80.000
58.988,01.012,60.000,-0.002,-0.005,-80.000,-80.000
58.985,01.015,60.000,-0.003,00.000,-80.000,-80.000
58.981,01.019,60.000,-0.002,00.001,-80.000,-80.000
58.978,01.022,60.000,-0.003,-0.004,-80.000,-80.000
58.974,01.026,60.000,-0.002,-0.004,-80.000,-80.000
58.971,01.029,60.000,-0.003,00.001,-80.000,-80.000
58.967,01.033,60.000,-0.002,-0.001,-80.000,-80.000
58.964,01.036,60.000,-0.002,-0.005,-80.000,-80.000
58.960,01.040,60.000,-0.002,-0.002,-80.000,-80.000
58.957,01.043,60.000,-0.002,00.001,-80.000,-80.000
58.953,01.047,60.000,-0.002,-0.003,-80.000,-80.000
58.950,01.050,60.000,-0.003,-0.005,-80.000,-80.000
58.946,01.054,60.000,-0.003,00.000,-80.000,-80.000
58.942,01.058,60.000,-0.002,00.000,-80.000,-80.000
58.939,01.061,60.000,-0.003,-0.005,-80.000,-80.000
58.935,01.065,60.000,-0.003,-0.004,-80.000,-80.000
58.932,01.068,60.000,-0.002,00.001,-80.000,-80.000
58.928,01.072,60.000,-0.003,-0.001,-80.000,-80.000
58.925,01.075,60.000,-0.003,-0.005,-80.000,-80.000
58.921,01.079,60.000,-0.003,-0.001,-80.000,-80.000
58.918,01.082,60.000,-0.002,00.001,-80.000,-80.000
58.914,01.086,60.000,-0.002,-0.004,-80.000,-80.000
58.911,01.089,60.000,-0.003,-0.005,-80.000,-80.000
58.907,01.093,60.000,-0.003,00.000,-80.000,-80.000
58.904,01.096,60.000,-0.003,00.000,-80.000,-80.000
58.900,01.100,60.000,-0.002,-0.004,-80.000,-80.000
58.896,01.104,60.000,-0.003,-0.003,-80.000,-80.000
58.893,01.107,60.000,-0.003,00.002,-80.000,-80.000
58.889,01.111,60.000,-0.003,-0.002,-80.000,-80.000
58.886,01.114,60.000,-0.003,-0.005,-80.000,-80.000
58.882,01.118,60.000,-0.002,-0.001,-80.000,-80.000
58.879,01.121,60.000,-0.002,00.002,-80.000,-80.000
58.875,01.125,60.000,-0.003,-0.003,-80.000,-80.000
58.872,01.128,60.000,-0.002,-0.005,-80.000,-80.000
58.868,01.132,60.000,-0.002,00.001,-80.000,-80.000
58.865,01.135,60.000,-0.002,-0.000,-80.000,-80.000
58.861,01.139,60.000,-0.003,-0.005,-80.000,-80.000
58.858,01.142,60.000,-0.002,-0.003,-80.000,-80.000
58.854,01.146,60.000,-0.003,00.001,-80.000,-80.000
58.851,01.149,60.000,-0.003,-0.002,-80.000,-80.000
58.847,01.153,60.000,-0.003,-0.005,-80.000,-80.000
58.843,01.157,60.000,-0.002,-0.001,-80.000,-80.000
58.840,01.160,60.000,-0.003,00.001,-80.000,-80.000
58.836,01.164,60.000,-0.003,-0.004,-80.000,-80.000
58.833,01.167,60.000,-0.003,-0.004,-80.000,-80.000
58.829,01.171,60.000,-0.003,00.001,-80.000,-80.000
58.826,01.174,60.000,-0.003,-0.001,-80.000,-80.000
58.822,01.178,60.000,-0.003,-0.005,-80.000,-80.000
58.819,01.181,60.000,-0.003,-0.002,-80.000,-80.000
58.815,01.185,60.000,-0.002,00.001,-80.000,-80.000
58.812,01.188,60.000,-0.003,-0.003,-80.000,-80.000
58.808,01.192,60.000,-0.003,-0.005,-80.000,-80.000
58.805,01.195,60.000,-0.003,-0.000,-80.000,-80.000
58.801,01.199,60.000,-0.002,00.001,-80.000,-80.000
58.797,01.203,60.000,-0.002,-0.004,-80.000,-80.000
58.794,01.206,60.000,-0.002,-0.003,-80.000,-80.000
58.790,01.210,60.000,-0.002,00.001,-80.000,-80.000
58.787,01.213,60.000,-0.003,-0.001,-80.000,-80.000
58.783,01.217,60.000,-0.003,-0.005,-80.000,-80.000
58.780,01.220,60.000,-0.003,-0.002,-80.000,-80.000
58.776,01.224,60.000,-0.003,00.001,-80.000,-80.000
58.773,01.227,60.000,-0.003,-0.003,-80.000,-80.000
58.769,01.231,60.000,-0.003,-0.004,-80.000,-80.000
58.766,01.234,60.000,-0.002,00.000,-80.000,-80.000
58.762,01.238,60.000,-0.003,00.000,-80.000,-80.000
58.759,01.241,60.000,-0.003,-0.004,-80.000,-80.000
58.755,01.245,60.000,-0.003,-0.003,-80.000,-80.000
58.752,01.248,60.000,-0.002,00.001,-80.000,-80.000
58.748,01.252,60.000,-0.003,-0.001,-80.000,-80.000
58.744,01.256,60.000,-0.003,-0.005,-80.000,-80.000
58.741,01.259,60.000,-0.003,-0.001,-80.000,-80.000
58.737,01.263,60.000,-0.003,00.001,-80.000,-80.000
58.734,01.266,60.000,-0.003,-0.003,-80.000,-80.000
58.730,01.270,60.000,-0.004,-0.004,-80.000,-80.000
58.727,01.273,60.000,-0.003,00.001,-80.000,-80.000
58.723,01.277,60.000,-0.003,00.000,-80.000,-80.000
58.720,01.280,60.000,-0.002,-0.005,-80.000,-80.000
58.716,01.284,60.000,-0.003,-0.003,-80.000,-80.000
58.713,01.287,60.000,-0.003,00.001,-80.000,-80.000
58.709,01.291,60.000,-0.003,-0.002,-80.000,-80.000
58.706,01.294,60.000,-0.002,-0.005,-80.000,-80.000
58.702,01.298,60.000,-0.003,-0.000,-80.000,-80.000
58.698,01.302,60.000,-0.003,00.001,-80.000,-80.000
58.695,01.305,60.000,-0.002,-0.004,-80.000,-80.000
58.691,01.309,60.000,-0.003,-0.004,-80.000,-80.000
58.688,01.312,60.000,-0.003,00.001,-80.000,-80.000
58.684,01.316,60.000,-0.003,-0.000,-80.000,-80.000
58.681,01.319,60.000,-0.003,-0.005,-80.000,-80.000
58.677,01.323,60.000,-0.003,-0.002,-80.000,-80.000
58.674,01.326,60.000,-0.003,00.002,-80.000,-80.000
58.670,01.330,60.000,-0.003,-0.003,-80.000,-80.000
58.667,01.333,60.000,-0.003,-0.005,-80.000,-80.000
58.663,01.337,60.000,-0.003,-0.000,-80.000,-80.000
58.660,01.340,60.000,-0.003,00.001,-80.000,-80.000
58.656,01.344,60.000,-0.003,-0.005,-80.000,-80.000
58.653,01.347,60.000,-0.003,-0.003,-80.000,-80.000
58.649,01.351,60.000,-0.003,00.001,-80.000,-80.000
58.645,01.355,60.000,-0.003,-0.001,-80.000,-80.000
58.642,01.358,60.000,-0.002,-0.005,-80.000,-80.000
58.638,01.362,60.000,-0.003,-0.002,-80.000,-80.000
58.635,01.365,60.000,-0.002,00.001,-80.000,-80.000
58.631,01.369,60.000,-0.003,-0.003,-80.000,-80.000
58.628,01.372,60.000,-0.003,-0.005,-80.000,-80.000
58.624,01.376,60.000,-0.003,00.000,-80.000,-80.000
58.621,01.379,60.000,-0.002,00.000,-80.000,-80.000
58.617,01.383,60.000,-0.003,-0.005,-80.000,-80.000
58.614,01.386,60.000,-0.003,-0.003,-80.000,-80.000
58.610,01.390,60.000,-0.003,00.001,-80.000,-80.000
58.607,01.393,60.000,-0.002,-0.002,-80.000,-80.000
58.603,01.397,60.000,-0.003,-0.005,-80.000,-80.000
58.599,01.401,60.000,-0.003,-0.001,-80.000,-80.000
58.596,01.404,60.000,-0.003,00.001,-80.000,-80.000
58.592,01.408,60.000,-0.002,-0.004,-80.000,-80.000
58.589,01.411,60.000,-0.003,-0.004,-80.000,-80.000
58.585,01.415,60.000,-0.003,00.001,-80.000,-80.000
58.582,01.418,60.000,-0.003,-0.000,-80.000,-80.000
58.578,01.422,60.000,-0.002,-0.005,-80.000,-80.000
58.575,01.425,60.000,-0.003,-0.003,-80.000,-80.000
58.571,01.429,60.000,-0.003,00.001,-80.000,-80.000
58.568,01.432,60.000,-0.003,-0.002,-80.000,-80.000
58.564,01.436,60.000,-0.003,-0.005,-80.000,-80.000
58.561,01.439,60.000,-0.003,-0.001,-80.000,-80.000
58.557,01.443,60.000,-0.003,00.001,-80.000,-80.000
58.554,01.446,60.000,-0.003,-0.004,-80.000,-80.000
58.550,01.450,60.000,-0.003,-0.004,-80.000,-80.000
58.546,01.454,60.000,-0.002,00.001,-80.000,-80.000
58.543,01.457,60.000,-0.003,-0.000,-80.000,-80.000
58.539,01.461,60.000,-0.003,-0.006,-80.000,-80.000
58.536,01.464,60.000,-0.003,-0.002,-80.000,-80.000
58.532,01.468,60.000,-0.003,00.001,-80.000,-80.000
58.529,01.471,60.000,-0.003,-0.003,-80.000,-80.000
58.525,01.475,60.000,-0.003,-0.005,-80.000,-80.000
58.522,01.478,60.000,-0.003,-0.000,-80.000,-80.000
58.518,01.482,60.000,-0.004,00.001,-80.000,-80.000
58.515,01.485,60.000,-0.003,-0.004,-80.000,-80.000
58.511,01.489,60.000,-0.004,-0.004,-80.000,-80.000
58.508,01.492,60.000,-0.003,00.001,-80.000,-80.000
58.504,01.496,60.000,-0.003,-0.001,-80.000,-80.000
58.500,01.500,60.000,-0.003,-0.005,-80.000,-80.000
58.497,01.503,60.000,-0.003,-0.001,-80.000,-80.000
58.493,01.507,60.000,-0.003,00.001,-80.000,-80.000
58.490,01.510,60.000,-0.003,-0.003,-80.000,-80.000
58.486,01.514,60.000,-0.004,-0.005,-80.000,-80.000
58.483,01.517,60.000,-0.002,00.000,-80.000,-80.000
58.479,01.521,60.000,-0.004,00.000,-80.000,-80.000
58.476,01.524,60.000,-0.003,-0.005,-80.000,-80.000
58.472,01.528,60.000,-0.004,-0.003,-80.000,-80.000
58.469,01.531,60.000,-0.003,00.001,-80.000,-80.000
58.465,01.535,60.000,-0.003,-0.002,-80.000,-80.000
58.462,01.538,60.000,-0.003,-0.006,-80.000,-80.000
58.458,01.542,60.000,-0.003,-0.001,-80.000,-80.000
58.455,01.545,60.000,-0.003,00.001,-80.000,-80.000
58.451,01.549,60.000,-0.003,-0.004,-80.000,-80.000
58.447,01.553,60.000,-0.003,-0.005,-80.000,-80.000
58.444,01.556,60.000,-0.003,00.000,-80.000,-80.000
58.440,01.560,60.000,-0.003,-0.000,-80.000,-80.000
58.437,01.563,60.000,-0.003,-0.005,-80.000,-80.000
58.433,01.567,60.000,-0.003,-0.003,-80.000,-80.000
58.430,01.570,60.000,-0.003,00.001,-80.000,-80.000
58.426,01.574,60.000,-0.003,-0.002,-80.000,-80.000
58.423,01.577,60.000,-0.003,-0.005,-80.000,-80.000
58.419,01.581,60.000,-0.003,-0.001,-80.000,-80.000
58.416,01.584,60.000,-0.004,00.001,-80.000,-80.000
58.412,01.588,60.000,-0.003,-0.004,-80.000,-80.000
58.409,01.591,60.000,-0.004,-0.004,-80.000,-80.000
58.405,01.595,60.000,-0.003,00.001,-80.000,-80.000
58.401,01.599,60.000,-0.003,-0.000,-80.000,-80.000
58.398,01.602,60.000,-0.003,-0.005,-80.000,-80.000
58.394,01.606,60.000,-0.003,-0.003,-80.000,-80.000
58.391,01.609,60.000,-0.003,00.001,-80.000,-80.000
58.387,01.613,60.000,-0.003,-0.002,-80.000,-80.000
58.384,01.616,60.000,-0.003,-0.005,-80.000,-80.000
58.380,01.620,60.000,-0.003,-0.001,-80.000,-80.000
58.377,01.623,60.000,-0.003,00.001,-80.000,-80.000
58.373,01.627,60.000,-0.003,-0.004,-80.000,-80.000
58.370,01.630,60.000,-0.003,-0.004,-80.000,-80.000
58.366,01.634,60.000,-0.003,00.001,-80.000,-80.000
58.363,01.637,60.000,-0.003,-0.001,-80.000,-80.000
58.359,01.641,60.000,-0.003,-0.005,-80.000,-80.000
58.356,01.644,60.000,-0.003,-0.002,-80.000,-80.000
58.352,01.648,60.000,-0.004,00.002,-80.000,-80.000
58.348,01.652,60.000,-0.003,-0.002,-80.000,-80.000
58.345,01.655,60.000,-0.003,-0.005,-80.000,-80.000
58.341,01.659,60.000,-0.003,00.000,-80.000,-80.000
58.338,01.662,60.000,-0.003,00.001,-80.000,-80.000
58.334,01.666,60.000,-0.003,-0.004,-80.000,-80.000
58.331,01.669,60.000,-0.002,-0.004,-80.000,-80.000
58.327,01.673,60.000,-0.003,00.001,-80.000,-80.000
58.324,01.676,60.000,-0.003,-0.001,-80.000,-80.000
58.320,01.680,60.000,-0.002,-0.005,-80.000,-80.000
58.317,01.683,60.000,-0.003,-0.002,-80.000,-80.000
58.313,01.687,60.000,-0.003,00.001,-80.000,-80.000
58.310,01.690,60.000,-0.002,-0.003,-80.000,-80.000
58.306,01.694,60.000,-0.003,-0.006,-80.000,-80.000
58.302,01.698,60.000,-0.003,-0.000,-80.000,-80.000
58.299,01.701,60.000,-0.004,00.001,-80.000,-80.000
58.295,01.705,60.000,-0.003,-0.004,-80.000,-80.000
58.292,01.708,60.000,-0.003,-0.004,-80.000,-80.000
58.288,01.712,60.000,-0.003,00.001,-80.000,-80.000
58.285,01.715,60.000,-0.002,-0.000,-80.000,-80.000
58.281,01.719,60.000,-0.004,-0.005,-80.000,-80.000
58.278,01.722,60.000,-0.002,-0.002,-80.000,-80.000
58.274,01.726,60.000,-0.002,00.001,-80.000,-80.000
58.271,01.729,60.000,-0.003,-0.003,-80.000,-80.000
58.267,01.733,60.000,-0.003,-0.005,-80.000,-80.000
58.264,01.736,60.000,-0.002,-0.000,-80.000,-80.000
58.260,01.740,60.000,-0.003,00.001,-80.000,-80.000
58.257,01.743,60.000,-0.003,-0.004,-80.000,-80.000
58.253,01.747,60.000,-0.003,-0.004,-80.000,-80.000
58.249,01.751,60.000,-0.003,00.001,-80.000,-80.000
58.246,01.754,60.000,-0.004,-0.001,-80.000,-80.000
58.242,01.758,60.000,-0.002,-0.005,-80.000,-80.000
58.239,01.761,60.000,-0.003,-0.002,-80.000,-80.000
58.235,01.765,60.000,-0.003,00.001,-80.000,-80.000
58.232,01.768,60.000,-0.003,-0.003,-80.000,-80.000
58.228,01.772,60.000,-0.002,-0.005,-80.000,-80.000
58.225,01.775,60.000,-0.003,-0.000,-80.000,-80.000
58.221,01.779,60.000,-0.003,00.001,-80.000,-80.000
58.218,01.782,60.000,-0.003,-0.004,-80.000,-80.000
58.214,01.786,60.000,-0.003,-0.004,-80.000,-80.000
58.211,01.789,60.000,-0.004,00.001,-80.000,-80.000
58.207,01.793,60.000,-0.003,-0.000,-80.000,-80.000
58.203,01.797,60.000,-0.002,-0.005,-80.000,-80.000
58.200,01.800,60.000,-0.002,-0.002,-80.000,-80.000
58.196,01.804,60.000,-0.002,00.001,-80.000,-80.000
58.193,01.807,60.000,-0.003,-0.003,-80.000,-80.000
58.189,01.811,60.000,-0.003,-0.005,-80.000,-80.000
58.186,01.814,60.000,-0.003,-0.001,-80.000,-80.000
58.182,01.818,60.000,-0.002,00.001,-80.000,-80.000
58.179,01.821,60.000,-0.002,-0.004,-80.000,-80.000
58.175,01.825,60.000,-0.002,-0.004,-80.000,-80.000
58.172,01.828,60.000,-0.003,00.001,-80.000,-80.000
58.168,01.832,60.000,-0.003,-0.000,-80.000,-80.000
58.165,01.835,60.000,-0.002,-0.005,-80.000,-80.000
58.161,01.839,60.000,-0.002,-0.003,-80.000,-80.000
58.158,01.842,60.000,-0.002,00.002,-80.000,-80.000
58.154,01.846,60.000,-0.003,-0.002,-80.000,-80.000
58.150,01.850,60.000,-0.003,-0.005,-80.000,-80.000
58.147,01.853,60.000,-0.003,-0.001,-80.000,-80.000
58.143,01.857,60.000,-0.003,00.001,-80.000,-80.000
58.140,01.860,60.000,-0.003,-0.004,-80.000,-80.000
58.136,01.864,60.000,-0.003,-0.004,-80.000,-80.000
58.133,01.867,60.000,-0.003,00.001,-80.000,-80.000
58.129,01.871,60.000,-0.003,00.000,-80.000,-80.000
58.126,01.874,60.000,-0.002,-0.005,-80.000,-80.000
58.122,01.878,60.000,-0.003,-0.003,-80.000,-80.000
58.119,01.881,60.000,-0.002,00.002,-80.000,-80.000
58.115,01.885,60.000,-0.002,-0.002,-80.000,-80.000
58.112,01.888,60.000,-0.002,-0.005,-80.000,-80.000
58.108,01.892,60.000,-0.002,-0.001,-80.000,-80.000
58.104,01.896,60.000,-0.002,00.001,-80.000,-80.000
58.101,01.899,60.000,-0.003,-0.004,-80.000,-80.000
58.097,01.903,60.000,-0.003,-0.004,-80.000,-80.000
58.094,01.906,60.000,-0.003,00.001,-80.000,-80.000
58.090,01.910,60.000,-0.003,00.000,-80.000,-80.000
58.087,01.913,60.000,-0.003,-0.005,-80.000,-80.000
58.083,01.917,60.000,-0.002,-0.003,-80.000,-80.000
58.080,01.920,60.000,-0.002,00.001,-80.000,-80.000
58.076,01.924,60.000,-0.003,-0.002,-80.000,-80.000
58.073,01.927,60.000,-0.003,-0.005,-80.000,-80.000
58.069,01.931,60.000,-0.003,-0.001,-80.000,-80.000
58.066,01.934,60.000,-0.002,00.001,-80.000,-80.000
58.062,01.938,60.000,-0.003,-0.003,-80.000,-80.000
58.059,01.941,60.000,-0.002,-0.004,-80.000,-80.000
58.055,01.945,60.000,-0.003,00.001,-80.000,-80.000
58.051,01.949,60.000,-0.004,-0.000,-80.000,-80.000
58.048,01.952,60.000,-0.004,-0.005,-80.000,-80.000
58.044,01.956,60.000,-0.003,-0.003,-80.000,-80.000
58.041,01.959,60.000,-0.003,00.002,-80.000,-80.000
58.037,01.963,60.000,-0.003,-0.002,-80.000,-80.000
58.034,01.966,60.000,-0.003,-0.005,-80.000,-80.000
58.030,01.970,60.000,-0.003,-0.001,-80.000,-80.000
58.027,01.973,60.000,-0.003,00.001,-80.000,-80.000
58.023,01.977,60.000,-0.003,-0.003,-80.000,-80.000
58.020,01.980,60.000,-0.003,-0.004,-80.000,-80.000
58.016,01.984,60.000,-0.004,00.001,-80.000,-80.000
58.013,01.987,60.000,-0.002,-0.000,-80.000,-80.000
58.009,01.991,60.000,-0.003,-0.005,-80.000,-80.000
58.005,01.994,60.000,-0.003,-0.003,-80.000,-80.000
58.002,01.998,60.000,-0.003,00.001,-80.000,-80.000
57.998,02.002,60.000,-0.003,-0.002,-80.000,-80.000
57.995,02.005,60.000,-0.002,-0.005,-80.000,-80.000
57.991,02.009,60.000,-0.003,-0.001,-80.000,-80.000
57.988,02.012,60.000,-0.002,00.001,-80.000,-80.000
57.984,02.016,60.000,-0.003,-0.004,-80.000,-80.000
57.981,02.019,60.000,-0.003,-0.005,-80.000,-80.000
57.977,02.023,60.000,-0.002,00.000,-80.000,-80.000
57.974,02.026,60.000,-0.003,-0.000,-80.000,-80.000
57.970,02.030,60.000,-0.002,-0.004,-80.000,-80.000
57.967,02.033,60.000,-0.003,-0.003,-80.000,-80.000
57.963,02.037,60.000,-0.003,00.001,-80.000,-80.000
57.960,02.040,60.000,-0.004,-0.002,-80.000,-80.000
57.956,02.044,60.000,-0.003,-0.005,-80.000,-80.000
57.952,02.048,60.000,-0.003,-0.001,-80.000,-80.000
57.949,02.051,60.000,-0.003,00.001,-80.000,-80.000
57.945,02.055,60.000,-0.003,-0.004,-80.000,-80.000
57.942,02.058,60.000,-0.003,-0.005,-80.000,-80.000
57.938,02.062,60.000,-0.003,00.000,-80.000,-80.000
57.935,02.065,60.000,-0.002,-0.000,-80.000,-80.000
57.931,02.069,60.000,-0.003,-0.005,-80.000,-80.000
57.928,02.072,60.000,-0.004,-0.003,-80.000,-80.000
57.924,02.076,60.000,-0.003,00.001,-80.000,-80.000
57.921,02.079,60.000,-0.002,-0.002,-80.000,-80.000
57.917,02.083,60.000,-0.003,-0.005,-80.000,-80.000
57.914,02.086,60.000,-0.003,-0.001,-80.000,-80.000
57.910,02.090,60.000,-0.003,00.001,-80.000,-80.000
57.907,02.094,60.000,-0.003,-0.003,-80.000,-80.000
57.903,02.097,60.000,-0.004,-0.005,-80.000,-80.000
57.899,02.101,60.000,-0.004,00.001,-80.000,-80.000
57.896,02.104,60.000,-0.003,-0.000,-80.000,-80.000
57.892,02.108,60.000,-0.003,-0.005,-80.000,-80.000
57.889,02.111,60.000,-0.003,-0.003,-80.000,-80.000
57.885,02.115,60.000,-0.003,00.001,-80.000,-80.000
57.882,02.118,60.000,-0.003,-0.002,-80.000,-80.000
57.878,02.122,60.000,-0.003,-0.005,-80.000,-80.000
57.875,02.125,60.000,-0.003,-0.001,-80.000,-80.000
57.871,02.129,60.000,-0.002,00.001,-80.000,-80.000
57.868,02.132,60.000,-0.003,-0.004,-80.000,-80.000
57.864,02.136,60.000,-0.002,-0.004,-80.000,-80.000
57.861,02.139,60.000,-0.002,00.001,-80.000,-80.000
57.857,02.143,60.000,-0.002,-0.000,-80.000,-80.000
57.853,02.147,60.000,-0.004,-0.005,-80.000,-80.000
57.850,02.150,60.000,-0.003,-0.003,-80.000,-80.000
57.846,02.154,60.000,-0.003,00.001,-80.000,-80.000
57.843,02.157,60.000,-0.002,-0.002,-80.000,-80.000
57.839,02.161,60.000,-0.003,-0.005,-80.000,-80.000
57.836,02.164,60.000,-0.003,-0.001,-80.000,-80.000
57.832,02.168,60.000,-0.003,00.001,-80.000,-80.000
57.829,02.171,60.000,-0.004,-0.003,-80.000,-80.000
57.825,02.175,60.000,-0.003,-0.005,-80.000,-80.000
57.822,02.178,60.000,-0.002,00.001,-80.000,-80.000
57.818,02.182,60.000,-0.002,00.000,-80.000,-80.000
57.815,02.185,60.000,-0.002,-0.005,-80.000,-80.000
57.811,02.189,60.000,-0.003,-0.002,-80.000,-80.000
57.807,02.193,60.000,-0.003,00.002,-80.000,-80.000
57.804,02.196,60.000,-0.002,-0.003,-80.000,-80.000
57.800,02.200,60.000,-0.003,-0.005,-80.000,-80.000
57.797,02.203,60.000,-0.003,-0.000,-80.000,-80.000
57.793,02.207,60.000,-0.003,00.002,-80.000,-80.000
57.790,02.210,60.000,-0.003,-0.005,-80.000,-80.000
57.786,02.214,60.000,-0.003,-0.004,-80.000,-80.000
57.783,02.217,60.000,-0.002,00.002,-80.000,-80.000
57.779,02.221,60.000,-0.002,-0.000,-80.000,-80.000
57.776,02.224,60.000,-0.003,-0.006,-80.000,-80.000
57.772,02.228,60.000,-0.003,-0.002,-80.000,-80.000
57.769,02.231,60.000,-0.003,00.002,-80.000,-80.000
57.765,02.235,60.000,-0.003,-0.002,-80.000,-80.000
57.762,02.238,60.000,-0.003,-0.005,-80.000,-80.000
57.758,02.242,60.000,-0.003,00.000,-80.000,-80.000
57.754,02.246,60.000,-0.004,00.001,-80.000,-80.000
57.751,02.249,60.000,-0.003,-0.005,-80.000,-80.000
57.747,02.253,60.000,-0.003,-0.004,-80.000,-80.000
57.744,02.256,60.000,-0.003,00.001,-80.000,-80.000
57.740,02.260,60.000,-0.002,-0.001,-80.000,-80.000
57.737,02.263,60.000,-0.002,-0.006,-80.000,-80.000
57.733,02.267,60.000,-0.003,-0.002,-80.000,-80.000
57.730,02.270,60.000,-0.003,00.002,-80.000,-80.000
57.726,02.274,60.000,-0.003,-0.003,-80.000,-80.000
57.723,02.277,60.000,-0.003,-0.005,-80.000,-80.000
57.719,02.281,60.000,-0.003,-0.000,-80.000,-80.000
57.716,02.284,60.000,-0.003,00.001,-80.000,-80.000
57.712,02.288,60.000,-0.003,-0.004,-80.000,-80.000
57.709,02.291,60.000,-0.003,-0.004,-80.000,-80.000
57.705,02.295,60.000,-0.002,00.001,-80.000,-80.000
57.701,02.299,60.000,-0.003,-0.000,-80.000,-80.000
57.698,02.302,60.000,-0.002,-0.005,-80.000,-80.000
57.694,02.306,60.000,-0.003,-0.002,-80.000,-80.000
57.691,02.309,60.000,-0.002,00.002,-80.000,-80.000
57.687,02.313,60.000,-0.003,-0.002,-80.000,-80.000
57.684,02.316,60.000,-0.003,-0.005,-80.000,-80.000
57.680,02.320,60.000,-0.003,00.000,-80.000,-80.000
57.677,02.323,60.000,-0.003,00.001,-80.000,-80.000
57.673,02.327,60.000,-0.003,-0.004,-80.000,-80.000
57.670,02.330,60.000,-0.003,-0.004,-80.000,-80.000
57.666,02.334,60.000,-0.003,00.001,-80.000,-80.000
57.663,02.337,60.000,-0.003,-0.001,-80.000,-80.000
57.659,02.341,60.000,-0.003,-0.005,-80.000,-80.000
57.655,02.345,60.000,-0.002,-0.002,-80.000,-80.000
57.652,02.348,60.000,-0.003,00.002,-80.000,-80.000
57.648,02.352,60.000,-0.003,-0.003,-80.000,-80.000
57.645,02.355,60.000,-0.003,-0.005,-80.000,-80.000
57.641,02.359,60.000,-0.003,-0.000,-80.000,-80.000
57.638,02.362,60.000,-0.002,00.001,-80.000,-80.000
57.634,02.366,60.000,-0.003,-0.005,-80.000,-80.000
57.631,02.369,60.000,-0.003,-0.004,-80.000,-80.000
57.627,02.373,60.000,-0.003,00.001,-80.000,-80.000
57.624,02.376,60.000,-0.003,-0.001,-80.000,-80.000
57.620,02.380,60.000,-0.003,-0.005,-80.000,-80.000
57.617,02.383,60.000,-0.003,-0.002,-80.000,-80.000
57.613,02.387,60.000,-0.003,00.002,-80.000,-80.000
57.610,02.391,60.000,-0.003,-0.003,-80.000,-80.000
57.606,02.394,60.000,-0.003,-0.005,-80.000,-80.000
57.602,02.398,60.000,-0.003,00.000,-80.000,-80.000
57.599,02.401,60.000,-0.003,00.001,-80.000,-80.000
57.595,02.405,60.000,-0.003,-0.004,-80.000,-80.000
57.592,02.408,60.000,-0.003,-0.003,-80.000,-80.000
57.588,02.412,60.000,-0.002,00.002,-80.000,-80.000
57.585,02.415,60.000,-0.003,-0.001,-80.000,-80.000
57.581,02.419,60.000,-0.003,-0.005,-80.000,-80.000
57.578,02.422,60.000,-0.003,-0.002,-80.000,-80.000
57.574,02.426,60.000,-0.003,00.002,-80.000,-80.000
57.571,02.429,60.000,-0.003,-0.003,-80.000,-80.000
57.567,02.433,60.000,-0.003,-0.005,-80.000,-80.000
57.564,02.436,60.000,-0.003,00.000,-80.000,-80.000
57.560,02.440,60.000,-0.003,00.001,-80.000,-80.000
57.556,02.444,60.000,-0.003,-0.005,-80.000,-80.000
57.553,02.447,60.000,-0.002,-0.004,-80.000,-80.000
57.549,02.451,60.000,-0.003,00.001,-80.000,-80.000
57.546,02.454,60.000,-0.003,-0.001,-80.000,-80.000
57.542,02.458,60.000,-0.003,-0.005,-80.000,-80.000
57.539,02.461,60.000,-0.003,-0.002,-80.000,-80.000
57.535,02.465,60.000,-0.002,00.002,-80.000,-80.000
57.532,02.468,60.000,-0.003,-0.004,-80.000,-80.000
57.528,02.472,60.000,-0.003,-0.005,-80.000,-80.000
57.525,02.475,60.000,-0.004,-0.000,-80.000,-80.000
57.521,02.479,60.000,-0.002,00.001,-80.000,-80.000
57.518,02.482,60.000,-0.003,-0.005,-80.000,-80.000
57.514,02.486,60.000,-0.003,-0.004,-80.000,-80.000
57.511,02.490,60.000,-0.003,00.001,-80.000,-80.000
57.507,02.493,60.000,-0.003,-0.001,-80.000,-80.000
57.503,02.497,60.000,-0.003,-0.006,-80.000,-80.000
57.500,02.500,60.000,-0.002,-0.001,-80.000,-80.000
57.496,02.504,60.000,-0.002,00.001,-80.000,-80.000
57.493,02.507,60.000,-0.003,-0.004,-80.000,-80.000
57.489,02.511,60.000,-0.003,-0.005,-80.000,-80.000
57.486,02.514,60.000,-0.003,00.000,-80.000,-80.000
57.482,02.518,60.000,-0.003,00.001,-80.000,-80.000
57.479,02.521,60.000,-0.003,-0.005,-80.000,-80.000
57.475,02.525,60.000,-0.002,-0.004,-80.000,-80.000
57.472,02.528,60.000,-0.003,00.002,-80.000,-80.000
57.468,02.532,60.000,-0.003,-0.001,-80.000,-80.000
57.465,02.535,60.000,-0.003,-0.005,-80.000,-80.000
57.461,02.539,60.000,-0.002,-0.001,-80.000,-80.000
57.457,02.543,60.000,-0.003,00.002,-80.000,-80.000
57.454,02.546,60.000,-0.003,-0.004,-80.000,-80.000
57.450,02.550,60.000,-0.003,-0.005,-80.000,-80.000
57.447,02.553,60.000,-0.003,00.000,-80.000,-80.000
57.443,02.557,60.000,-0.002,00.001,-80.000,-80.000
57.440,02.560,60.000,-0.002,-0.005,-80.000,-80.000
57.436,02.564,60.000,-0.003,-0.003,-80.000,-80.000
57.433,02.567,60.000,-0.003,00.002,-80.000,-80.000
57.429,02.571,60.000,-0.002,-0.001,-80.000,-80.000
57.426,02.574,60.000,-0.003,-0.005,-80.000,-80.000
57.422,02.578,60.000,-0.003,-0.001,-80.000,-80.000
57.419,02.581,60.000,-0.003,00.001,-80.000,-80.000
57.415,02.585,60.000,-0.003,-0.003,-80.000,-80.000
57.412,02.588,60.000,-0.003,-0.005,-80.000,-80.000
57.408,02.592,60.000,-0.002,00.001,-80.000,-80.000
57.404,02.596,60.000,-0.003,00.001,-80.000,-80.000
57.401,02.599,60.000,-0.002,-0.004,-80.000,-80.000
57.397,02.603,60.000,-0.003,-0.003,-80.000,-80.000
57.394,02.606,60.000,-0.002,00.002,-80.000,-80.000
57.390,02.610,60.000,-0.002,-0.001,-80.000,-80.000
57.387,02.613,60.000,-0.003,-0.005,-80.000,-80.000
57.383,02.617,60.000,-0.003,-0.001,-80.000,-80.000
57.380,02.620,60.000,-0.004,00.001,-80.000,-80.000
57.376,02.624,60.000,-0.003,-0.004,-80.000,-80.000
57.373,02.627,60.000,-0.003,-0.005,-80.000,-80.000
57.369,02.631,60.000,-0.002,00.001,-80.000,-80.000
57.366,02.634,60.000,-0.002,00.000,-80.000,-80.000
57.362,02.638,60.000,-0.002,-0.005,-80.000,-80.000
57.358,02.642,60.000,-0.003,-0.003,-80.000,-80.000
57.355,02.645,60.000,-0.002,00.002,-80.000,-80.000
57.351,02.649,60.000,-0.002,-0.001,-80.000,-80.000
57.348,02.652,60.000,-0.003,-0.005,-80.000,-80.000
57.344,02.656,60.000,-0.003,-0.000,-80.000,-80.000
57.341,02.659,60.000,-0.002,00.001,-80.000,-80.000
57.337,02.663,60.000,-0.003,-0.004,-80.000,-80.000
57.334,02.666,60.000,-0.002,-0.004,-80.000,-80.000
57.330,02.670,60.000,-0.002,00.001,-80.000,-80.000
57.327,02.673,60.000,-0.002,-0.000,-80.000,-80.000
57.323,02.677,60.000,-0.003,-0.005,-80.000,-80.000
57.320,02.680,60.000,-0.002,-0.002,-80.000,-80.000
57.316,02.684,60.000,-0.002,00.002,-80.000,-80.000
57.313,02.687,60.000,-0.003,-0.002,-80.000,-80.000
57.309,02.691,60.000,-0.002,-0.005,-80.000,-80.000
57.305,02.695,60.000,-0.003,-0.000,-80.000,-80.000
57.302,02.698,60.000,-0.003,00.001,-80.000,-80.000
57.298,02.702,60.000,-0.003,-0.004,-80.000,-80.000
57.295,02.705,60.000,-0.003,-0.004,-80.000,-80.000
57.291,02.709,60.000,-0.003,00.002,-80.000,-80.000
57.288,02.712,60.000,-0.003,-0.000,-80.000,-80.000
57.284,02.716,60.000,-0.003,-0.005,-80.000,-80.000
57.281,02.719,60.000,-0.003,-0.002,-80.000,-80.000
57.277,02.723,60.000,-0.003,00.002,-80.000,-80.000
57.274,02.726,60.000,-0.003,-0.003,-80.000,-80.000
57.270,02.730,60.000,-0.003,-0.005,-80.000,-80.000
57.267,02.733,60.000,-0.003,00.000,-80.000,-80.000
57.263,02.737,60.000,-0.004,00.001,-80.000,-80.000
57.259,02.741,60.000,-0.003,-0.004,-80.000,-80.000
57.256,02.744,60.000,-0.003,-0.004,-80.000,-80.000
57.252,02.748,60.000,-0.003,00.002,-80.000,-80.000
57.249,02.751,60.000,-0.003,-0.001,-80.000,-80.000
57.245,02.755,60.000,-0.003,-0.006,-80.000,-80.000
57.242,02.758,60.000,-0.004,-0.001,-80.000,-80.000
57.238,02.762,60.000,-0.002,00.002,-80.000,-80.000
57.235,02.765,60.000,-0.003,-0.004,-80.000,-80.000
57.231,02.769,60.000,-0.003,-0.004,-80.000,-80.000
57.228,02.772,60.000,-0.003,00.001,-80.000,-80.000
57.224,02.776,60.000,-0.002,00.000,-80.000,-80.000
57.221,02.779,60.000,-0.003,-0.005,-80.000,-80.000
57.217,02.783,60.000,-0.003,-0.003,-80.000,-80.000
57.213,02.786,60.000,-0.003,00.002,-80.000,-80.000
57.210,02.790,60.000,-0.002,-0.002,-80.000,-80.000
57.206,02.794,60.000,-0.003,-0.005,-80.000,-80.000
57.203,02.797,60.000,-0.002,-0.000,-80.000,-80.000
57.199,02.801,60.000,-0.002,00.001,-80.000,-80.000
57.196,02.804,60.000,-0.002,-0.004,-80.000,-80.000
57.192,02.808,60.000,-0.003,-0.004,-80.000,-80.000
57.189,02.811,60.000,-0.003,00.002,-80.000,-80.000
57.185,02.815,60.000,-0.003,-0.001,-80.000,-80.000
57.182,02.818,60.000,-0.002,-0.005,-80.000,-80.000
57.178,02.822,60.000,-0.003,-0.002,-80.000,-80.000
57.175,02.825,60.000,-0.002,00.001,-80.000,-80.000
57.171,02.829,60.000,-0.003,-0.003,-80.000,-80.000
57.168,02.832,60.000,-0.003,-0.005,-80.000,-80.000
57.164,02.836,60.000,-0.003,00.000,-80.000,-80.000
57.160,02.840,60.000,-0.003,00.001,-80.000,-80.000
57.157,02.843,60.000,-0.002,-0.005,-80.000,-80.000
57.153,02.847,60.000,-0.003,-0.003,-80.000,-80.000
57.150,02.850,60.000,-0.003,00.002,-80.000,-80.000
57.146,02.854,60.000,-0.003,-0.001,-80.000,-80.000
57.143,02.857,60.000,-0.002,-0.005,-80.000,-80.000
57.139,02.861,60.000,-0.003,-0.001,-80.000,-80.000
57.136,02.864,60.000,-0.003,00.002,-80.000,-80.000
57.132,02.868,60.000,-0.003,-0.004,-80.000,-80.000
57.129,02.871,60.000,-0.003,-0.005,-80.000,-80.000
57.125,02.875,60.000,-0.003,00.001,-80.000,-80.000
57.122,02.878,60.000,-0.002,00.000,-80.000,-80.000
57.118,02.882,60.000,-0.003,-0.005,-80.000,-80.000
57.115,02.885,60.000,-0.003,-0.003,-80.000,-80.000
57.111,02.889,60.000,-0.004,00.002,-80.000,-80.000
57.107,02.893,60.000,-0.003,-0.002,-80.000,-80.000
57.104,02.896,60.000,-0.003,-0.005,-80.000,-80.000
57.100,02.900,60.000,-0.003,00.000,-80.000,-80.000
57.097,02.903,60.000,-0.003,00.001,-80.000,-80.000
57.093,02.907,60.000,-0.003,-0.004,-80.000,-80.000
57.090,02.910,60.000,-0.003,-0.004,-80.000,-80.000
57.086,02.914,60.000,-0.003,00.001,-80.000,-80.000
57.083,02.917,60.000,-0.002,-0.001,-80.000,-80.000
57.079,02.921,60.000,-0.003,-0.006,-80.000,-80.000
57.076,02.924,60.000,-0.004,-0.002,-80.000,-80.000
57.072,02.928,60.000,-0.003,00.002,-80.000,-80.000
57.069,02.931,60.000,-0.003,-0.003,-80.000,-80.000
57.065,02.935,60.000,-0.003,-0.005,-80.000,-80.000
57.061,02.939,60.000,-0.002,00.001,-80.000,-80.000
57.058,02.942,60.000,-0.002,00.001,-80.000,-80.000
57.054,02.946,60.000,-0.003,-0.005,-80.000,-80.000
57.051,02.949,60.000,-0.003,-0.003,-80.000,-80.000
57.047,02.953,60.000,-0.002,00.002,-80.000,-80.000
57.044,02.956,60.000,-0.004,-0.002,-80.000,-80.000
57.040,02.960,60.000,-0.002,-0.006,-80.000,-80.000
57.037,02.963,60.000,-0.003,-0.001,-80.000,-80.000
57.033,02.967,60.000,-0.003,00.002,-80.000,-80.000
57.030,02.970,60.000,-0.003,-0.004,-80.000,-80.000
57.026,02.974,60.000,-0.003,-0.005,-80.000,-80.000
57.023,02.977,60.000,-0.003,00.001,-80.000,-80.000
57.019,02.981,60.000,-0.002,00.000,-80.000,-80.000
57.016,02.984,60.000,-0.003,-0.005,-80.000,-80.000
57.012,02.988,60.000,-0.004,-0.002,-80.000,-80.000
57.008,02.992,60.000,-0.003,00.002,-80.000,-80.000
57.005,02.995,60.000,-0.004,-0.002,-80.000,-80.000
57.001,02.999,60.000,-0.003,-0.005,-80.000,-80.000
56.998,03.002,60.000,-0.003,-0.001,-80.000,-80.000
56.994,03.006,60.000,-0.003,00.001,-80.000,-80.000
56.991,03.009,60.000,-0.003,-0.004,-80.000,-80.000
56.987,03.013,60.000,-0.003,-0.004,-80.000,-80.000
56.984,03.016,60.000,-0.003,00.001,-80.000,-80.000
56.980,03.020,60.000,-0.002,-0.000,-80.000,-80.000
56.977,03.023,60.000,-0.003,-0.005,-80.000,-80.000
56.973,03.027,60.000,-0.002,-0.002,-80.000,-80.000
56.970,03.030,60.000,-0.003,00.002,-80.000,-80.000
56.966,03.034,60.000,-0.002,-0.003,-80.000,-80.000
56.962,03.038,60.000,-0.003,-0.005,-80.000,-80.000
56.959,03.041,60.000,-0.004,-0.000,-80.000,-80.000
56.955,03.045,60.000,-0.003,00.002,-80.000,-80.000
56.952,03.048,60.000,-0.002,-0.004,-80.000,-80.000
56.948,03.052,60.000,-0.003,-0.004,-80.000,-80.000
56.945,03.055,60.000,-0.003,00.001,-80.000,-80.000
56.941,03.059,60.000,-0.002,-0.000,-80.000,-80.000
56.938,03.062,60.000,-0.002,-0.005,-80.000,-80.000
56.934,03.066,60.000,-0.003,-0.002,-80.000,-80.000
56.931,03.069,60.000,-0.003,00.002,-80.000,-80.000
56.927,03.073,60.000,-0.002,-0.003,-80.000,-80.000
56.924,03.076,60.000,-0.003,-0.005,-80.000,-80.000
56.920,03.080,60.000,-0.003,-0.000,-80.000,-80.000
56.917,03.083,60.000,-0.003,00.001,-80.000,-80.000
56.913,03.087,60.000,-0.003,-0.004,-80.000,-80.000
56.909,03.091,60.000,-0.003,-0.004,-80.000,-80.000
56.906,03.094,60.000,-0.003,00.002,-80.000,-80.000
56.902,03.098,60.000,-0.002,-0.001,-80.000,-80.000
56.899,03.101,60.000,-0.002,-0.005,-80.000,-80.000
56.895,03.105,60.000,-0.003,-0.001,-80.000,-80.000
56.892,03.108,60.000,-0.003,00.002,-80.000,-80.000
56.888,03.112,60.000,-0.003,-0.003,-80.000,-80.000
56.885,03.115,60.000,-0.003,-0.005,-80.000,-80.000
56.881,03.119,60.000,-0.003,00.000,-80.000,-80.000
56.878,03.122,60.000,-0.003,00.001,-80.000,-80.000
56.874,03.126,60.000,-0.003,-0.004,-80.000,-80.000
56.871,03.129,60.000,-0.003,-0.004,-80.000,-80.000
56.867,03.133,60.000,-0.002,00.001,-80.000,-80.000
56.863,03.137,60.000,-0.002,-0.001,-80.000,-80.000
56.860,03.140,60.000,-0.003,-0.007,-80.000,-80.000
56.856,03.144,60.000,-0.003,-0.002,-80.000,-80.000
56.853,03.147,60.000,-0.002,00.002,-80.000,-80.000
56.849,03.151,60.000,-0.003,-0.002,-80.000,-80.000
56.846,03.154,60.000,-0.003,-0.005,-80.000,-80.000
56.842,03.158,60.000,-0.003,-0.000,-80.000,-80.000
56.839,03.161,60.000,-0.003,00.001,-80.000,-80.000
56.835,03.165,60.000,-0.003,-0.004,-80.000,-80.000
56.832,03.168,60.000,-0.002,-0.004,-80.000,-80.000
56.828,03.172,60.000,-0.003,00.002,-80.000,-80.000
56.825,03.175,60.000,-0.003,-0.001,-80.000,-80.000
56.821,03.179,60.000,-0.002,-0.006,-80.000,-80.000
56.818,03.182,60.000,-0.003,-0.002,-80.000,-80.000
56.814,03.186,60.000,-0.002,00.002,-80.000,-80.000
56.810,03.190,60.000,-0.003,-0.002,-80.000,-80.000
56.807,03.193,60.000,-0.003,-0.005,-80.000,-80.000
