tRemaining, tElapsed, tTotal, Current, Voltage, Temp1, Temp2, 
59.999,00.001,60.000,-0.002,-0.001,-80.000,-80.000
59.996,00.004,60.000,-0.003,-0.001,-80.000,-80.000
59.992,00.008,60.000,-0.003,-0.003,-80.000,-80.000
59.989,00.011,60.000,-0.003,-0.002,-80.000,-80.000
59.985,00.015,60.000,-0.003,-0.001,-80.000,-80.000
59.981,00.019,60.000,-0.003,-0.002,-80.000,-80.000
59.978,00.022,60.000,-0.003,-0.003,-80.000,-80.000
59.974,00.026,60.000,-0.002,-0.002,-80.000,-80.000
59.971,00.029,60.000,-0.002,-0.001,-80.000,-80.000
59.967,00.033,60.000,-0.002,-0.002,-80.000,-80.000
59.964,00.036,60.000,-0.003,-0.003,-80.000,-80.000
59.960,00.040,60.000,-0.003,-0.001,-80.000,-80.000
59.957,00.043,60.000,-0.003,-0.001,-80.000,-80.000
59.953,00.047,60.000,-0.003,-0.003,-80.000,-80.000
59.950,00.050,60.000,-0.003,-0.003,-80.000,-80.000
59.946,00.054,60.000,-0.003,-0.001,-80.000,-80.000
59.943,00.057,60.000,-0.003,-0.001,-80.000,-80.000
59.939,00.061,60.000,-0.003,-0.003,-80.000,-80.000
59.935,00.065,60.000,-0.003,-0.002,-80.000,-80.000
59.932,00.068,60.000,-0.003,-0.001,-80.000,-80.000
59.928,00.072,60.000,-0.003,-0.002,-80.000,-80.000
59.925,00.075,60.000,-0.002,-0.003,-80.000,-80.000
59.921,00.079,60.000,-0.003,-0.002,-80.000,-80.000
59.918,00.082,60.000,-0.003,-0.001,-80.000,-80.000
59.914,00.086,60.000,-0.003,-0.002,-80.000,-80.000
59.911,00.089,60.000,-0.003,-0.003,-80.000,-80.000
59.907,00.093,60.000,-0.003,-0.001,-80.000,-80.000
59.904,00.096,60.000,-0.003,-0.001,-80.000,-80.000
59.900,00.100,60.000,-0.003,-0.003,-80.000,-80.000
59.897,00.103,60.000,-0.002,-0.003,-80.000,-80.000
59.893,00.107,60.000,-0.003,-0.001,-80.000,-80.000
59.890,00.110,60.000,-0.003,-0.002,-80.000,-80.000
59.886,00.114,60.000,-0.003,-0.003,-80.000,-80.000
59.882,00.118,60.000,-0.003,-0.002,-80.000,-80.000
59.879,00.121,60.000,-0.003,-0.001,-80.000,-80.000
59.875,00.125,60.000,-0.003,-0.002,-80.000,-80.000
59.872,00.128,60.000,-0.003,-0.003,-80.000,-80.000
59.868,00.132,60.000,-0.003,-0.001,-80.000,-80.000
59.865,00.135,60.000,-0.003,-0.001,-80.000,-80.000
59.861,00.139,60.000,-0.003,-0.003,-80.000,-80.000
59.858,00.142,60.000,-0.003,-0.003,-80.000,-80.000
59.854,00.146,60.000,-0.003,-0.001,-80.000,-80.000
59.851,00.149,60.000,-0.003,-0.001,-80.000,-80.000
59.847,00.153,60.000,-0.003,-0.003,-80.000,-80.000
59.844,00.156,60.000,-0.004,-0.002,-80.000,-80.000
59.840,00.160,60.000,-0.002,-0.001,-80.000,-80.000
59.836,00.164,60.000,-0.003,-0.002,-80.000,-80.000
59.833,00.167,60.000,-0.003,-0.004,-80.000,-80.000
59.829,00.171,60.000,-0.002,-0.002,-80.000,-80.000
59.826,00.174,60.000,-0.003,-0.001,-80.000,-80.000
59.822,00.178,60.000,-0.004,-0.002,-80.000,-80.000
59.819,00.181,60.000,-0.003,-0.003,-80.000,-80.000
59.815,00.185,60.000,-0.003,-0.002,-80.000,-80.000
59.812,00.188,60.000,-0.002,-0.001,-80.000,-80.000
59.808,00.192,60.000,-0.003,-0.003,-80.000,-80.000
59.805,00.195,60.000,-0.003,-0.003,-80.000,-80.000
59.801,00.199,60.000,-0.003,-0.001,-80.000,-80.000
59.798,00.202,60.000,-0.003,-0.001,-80.000,-80.000
59.794,00.206,60.000,-0.003,-0.003,-80.000,-80.000
59.791,00.209,60.000,-0.004,-0.002,-80.000,-80.000
59.787,00.213,60.000,-0.003,-0.000,-80.000,-80.000
59.783,00.217,60.000,-0.003,-0.002,-80.000,-80.000
59.780,00.220,60.000,-0.003,-0.003,-80.000,-80.000
59.776,00.224,60.000,-0.004,-0.002,-80.000,-80.000
59.773,00.227,60.000,-0.004,-0.000,-80.000,-80.000
59.769,00.231,60.000,-0.003,-0.002,-80.000,-80.000
59.766,00.234,60.000,-0.003,-0.003,-80.000,-80.000
59.762,00.238,60.000,-0.003,-0.001,-80.000,-80.000
59.759,00.241,60.000,-0.003,-0.001,-80.000,-80.000
59.755,00.245,60.000,-0.003,-0.003,-80.000,-80.000
59.752,00.248,60.000,-0.003,-0.003,-80.000,-80.000
59.748,00.252,60.000,-0.003,-0.001,-80.000,-80.000
59.745,00.255,60.000,-0.003,-0.002,-80.000,-80.000
59.741,00.259,60.000,-0.002,-0.003,-80.000,-80.000
59.737,00.263,60.000,-0.003,-0.002,-80.000,-80.000
59.734,00.266,60.000,-0.003,-0.001,-80.000,-80.000
59.730,00.270,60.000,-0.003,-0.002,-80.000,-80.000
59.727,00.273,60.000,-0.003,-0.003,-80.000,-80.000
59.723,00.277,60.000,-0.003,-0.002,-80.000,-80.000
59.720,00.280,60.000,-0.003,-0.000,-80.000,-80.000
