tRemaining, tElapsed, tTotal, Current, Voltage, Temp1, Temp2, 
59.999,00.001,60.000,-0.002,-0.002,-80.000,-80.000
59.996,00.004,60.000,-0.004,-0.003,-80.000,-80.000
59.992,00.008,60.000,-0.003,-0.001,-80.000,-80.000
59.988,00.012,60.000,-0.002,-0.001,-80.000,-80.000
59.985,00.015,60.000,-0.002,-0.003,-80.000,-80.000
59.981,00.019,60.000,-0.003,-0.002,-80.000,-80.000
59.978,00.022,60.000,-0.002,-0.001,-80.000,-80.000
59.974,00.026,60.000,-0.003,-0.002,-80.000,-80.000
59.971,00.029,60.000,-0.003,-0.003,-80.000,-80.000
59.967,00.033,60.000,-0.003,-0.001,-80.000,-80.000
59.964,00.036,60.000,-0.003,-0.000,-80.000,-80.000
59.960,00.040,60.000,-0.002,-0.002,-80.000,-80.000
59.957,00.043,60.000,-0.002,-0.002,-80.000,-80.000
59.953,00.047,60.000,-0.003,-0.001,-80.000,-80.000
59.950,00.050,60.000,-0.003,-0.001,-80.000,-80.000
59.946,00.054,60.000,-0.002,-0.003,-80.000,-80.000
59.943,00.057,60.000,-0.003,-0.002,-80.000,-80.000
59.939,00.061,60.000,-0.003,-0.000,-80.000,-80.000
59.935,00.065,60.000,-0.002,-0.002,-80.000,-80.000
59.932,00.068,60.000,-0.003,-0.003,-80.000,-80.000
59.928,00.072,60.000,-0.003,-0.001,-80.000,-80.000
59.925,00.075,60.000,-0.002,-0.001,-80.000,-80.000
59.921,00.079,60.000,-0.002,-0.003,-80.000,-80.000
59.918,00.082,60.000,-0.003,-0.002,-80.000,-80.000
59.914,00.086,60.000,-0.002,-0.001,-80.000,-80.000
59.911,00.089,60.000,-0.003,-0.002,-80.000,-80.000
59.907,00.093,60.000,-0.002,-0.003,-80.000,-80.000
59.904,00.096,60.000,-0.003,-0.001,-80.000,-80.000
59.900,00.100,60.000,-0.003,-0.000,-80.000,-80.000
59.897,00.103,60.000,-0.003,-0.002,-80.000,-80.000
59.893,00.107,60.000,-0.004,-0.002,-80.000,-80.000
59.889,00.111,60.000,-0.003,-0.000,-80.000,-80.000
59.886,00.114,60.000,-0.002,-0.001,-80.000,-80.000
59.882,00.118,60.000,-0.002,-0.003,-80.000,-80.000
59.879,00.121,60.000,-0.004,-0.002,-80.000,-80.000
59.875,00.125,60.000,-0.003,-0.001,-80.000,-80.000
59.872,00.128,60.000,-0.003,-0.002,-80.000,-80.000
59.868,00.132,60.000,-0.002,-0.003,-80.000,-80.000
59.865,00.135,60.000,-0.002,-0.001,-80.000,-80.000
59.861,00.139,60.000,-0.002,-0.001,-80.000,-80.000
59.858,00.142,60.000,-0.002,-0.003,-80.000,-80.000
59.854,00.146,60.000,-0.002,-0.002,-80.000,-80.000
59.851,00.149,60.000,-0.003,-0.000,-80.000,-80.000
59.847,00.153,60.000,-0.003,-0.002,-80.000,-80.000
59.844,00.156,60.000,-0.003,-0.003,-80.000,-80.000
59.840,00.160,60.000,-0.003,-0.001,-80.000,-80.000
59.836,00.164,60.000,-0.003,-0.001,-80.000,-80.000
59.833,00.167,60.000,-0.003,-0.003,-80.000,-80.000
59.829,00.171,60.000,-0.003,-0.002,-80.000,-80.000
59.826,00.174,60.000,-0.003,-0.000,-80.000,-80.000
59.822,00.178,60.000,-0.003,-0.001,-80.000,-80.000
59.819,00.181,60.000,-0.002,-0.003,-80.000,-80.000
59.815,00.185,60.000,-0.002,-0.001,-80.000,-80.000
59.812,00.188,60.000,-0.003,-0.000,-80.000,-80.000
59.808,00.192,60.000,-0.002,-0.002,-80.000,-80.000
59.805,00.195,60.000,-0.003,-0.003,-80.000,-80.000
59.801,00.199,60.000,-0.003,-0.001,-80.000,-80.000
59.798,00.202,60.000,-0.003,-0.001,-80.000,-80.000
59.794,00.206,60.000,-0.004,-0.003,-80.000,-80.000
59.790,00.209,60.000,-0.003,-0.001,-80.000,-80.000
59.787,00.213,60.000,-0.003,00.000,-80.000,-80.000
59.783,00.217,60.000,-0.002,-0.002,-80.000,-80.000
59.780,00.220,60.000,-0.002,-0.003,-80.000,-80.000
59.776,00.224,60.000,-0.002,-0.001,-80.000,-80.000
59.773,00.227,60.000,-0.002,-0.001,-80.000,-80.000
59.769,00.231,60.000,-0.003,-0.003,-80.000,-80.000
59.766,00.234,60.000,-0.002,-0.002,-80.000,-80.000
59.762,00.238,60.000,-0.003,-0.000,-80.000,-80.000
59.759,00.241,60.000,-0.002,-0.001,-80.000,-80.000
59.755,00.245,60.000,-0.003,-0.003,-80.000,-80.000
59.752,00.248,60.000,-0.002,-0.002,-80.000,-80.000
59.748,00.252,60.000,-0.002,-0.000,-80.000,-80.000
59.745,00.255,60.000,-0.003,-0.002,-80.000,-80.000
59.741,00.259,60.000,-0.003,-0.003,-80.000,-80.000
59.737,00.263,60.000,-0.002,-0.001,-80.000,-80.000
59.734,00.266,60.000,-0.002,-0.001,-80.000,-80.000
59.730,00.270,60.000,-0.003,-0.003,-80.000,-80.000
59.727,00.273,60.000,-0.003,-0.002,-80.000,-80.000
59.723,00.277,60.000,-0.003,-0.000,-80.000,-80.000
59.720,00.280,60.000,-0.002,-0.002,-80.000,-80.000
59.716,00.284,60.000,-0.003,-0.003,-80.000,-80.000
59.713,00.287,60.000,-0.002,-0.000,-80.000,-80.000
59.709,00.291,60.000,-0.003,-0.001,-80.000,-80.000
59.706,00.294,60.000,-0.003,-0.003,-80.000,-80.000
59.702,00.298,60.000,-0.003,-0.002,-80.000,-80.000
59.699,00.301,60.000,-0.003,-0.000,-80.000,-80.000
59.695,00.305,60.000,-0.003,-0.002,-80.000,-80.000
59.691,00.309,60.000,-0.003,-0.003,-80.000,-80.000
59.688,00.312,60.000,-0.003,-0.001,-80.000,-80.000
59.684,00.316,60.000,-0.003,-0.001,-80.000,-80.000
59.681,00.319,60.000,-0.003,-0.003,-80.000,-80.000
59.677,00.323,60.000,-0.003,-0.002,-80.000,-80.000
59.674,00.326,60.000,-0.003,00.000,-80.000,-80.000
59.670,00.330,60.000,-0.003,-0.001,-80.000,-80.000
59.667,00.333,60.000,-0.003,-0.003,-80.000,-80.000
59.663,00.337,60.000,-0.004,-0.001,-80.000,-80.000
59.660,00.340,60.000,-0.002,-0.000,-80.000,-80.000
59.656,00.344,60.000,-0.003,-0.002,-80.000,-80.000
59.653,00.347,60.000,-0.003,-0.003,-80.000,-80.000
59.649,00.351,60.000,-0.003,-0.000,-80.000,-80.000
59.646,00.354,60.000,-0.003,-0.001,-80.000,-80.000
59.642,00.358,60.000,-0.003,-0.003,-80.000,-80.000
59.638,00.362,60.000,-0.003,-0.002,-80.000,-80.000
59.635,00.365,60.000,-0.003,-0.001,-80.000,-80.000
59.631,00.369,60.000,-0.003,-0.002,-80.000,-80.000
59.628,00.372,60.000,-0.002,-0.003,-80.000,-80.000
59.624,00.376,60.000,-0.003,-0.001,-80.000,-80.000
59.621,00.379,60.000,-0.002,-0.001,-80.000,-80.000
59.617,00.383,60.000,-0.002,-0.003,-80.000,-80.000
59.614,00.386,60.000,-0.003,-0.002,-80.000,-80.000
59.610,00.390,60.000,-0.003,00.000,-80.000,-80.000
59.607,00.393,60.000,-0.003,-0.002,-80.000,-80.000
59.603,00.397,60.000,-0.002,-0.003,-80.000,-80.000
59.600,00.400,60.000,-0.002,-0.001,-80.000,-80.000
59.596,00.404,60.000,-0.002,-0.001,-80.000,-80.000
59.593,00.407,60.000,-0.002,-0.003,-80.000,-80.000
59.589,00.411,60.000,-0.002,-0.002,-80.000,-80.000
59.585,00.415,60.000,-0.003,00.000,-80.000,-80.000
59.582,00.418,60.000,-0.002,-0.002,-80.000,-80.000
59.578,00.422,60.000,-0.003,-0.003,-80.000,-80.000
59.575,00.425,60.000,-0.004,-0.001,-80.000,-80.000
59.571,00.429,60.000,-0.003,-0.001,-80.000,-80.000
59.568,00.432,60.000,-0.003,-0.002,-80.000,-80.000
59.564,00.436,60.000,-0.003,-0.003,-80.000,-80.000
59.561,00.439,60.000,-0.003,-0.000,-80.000,-80.000
59.557,00.443,60.000,-0.002,-0.001,-80.000,-80.000
59.554,00.446,60.000,-0.003,-0.003,-80.000,-80.000
59.550,00.450,60.000,-0.002,-0.001,-80.000,-80.000
59.547,00.453,60.000,-0.002,-0.000,-80.000,-80.000
59.543,00.457,60.000,-0.002,-0.002,-80.000,-80.000
59.539,00.461,60.000,-0.003,-0.003,-80.000,-80.000
59.536,00.464,60.000,-0.003,-0.000,-80.000,-80.000
59.532,00.468,60.000,-0.002,-0.001,-80.000,-80.000
59.529,00.471,60.000,-0.003,-0.003,-80.000,-80.000
59.525,00.475,60.000,-0.002,-0.002,-80.000,-80.000
59.522,00.478,60.000,-0.003,-0.000,-80.000,-80.000
59.518,00.482,60.000,-0.004,-0.002,-80.000,-80.000
59.515,00.485,60.000,-0.002,-0.003,-80.000,-80.000
59.511,00.489,60.000,-0.003,-0.001,-80.000,-80.000
59.508,00.492,60.000,-0.003,-0.000,-80.000,-80.000
59.504,00.496,60.000,-0.002,-0.003,-80.000,-80.000
59.501,00.499,60.000,-0.002,-0.002,-80.000,-80.000
59.497,00.503,60.000,-0.003,00.000,-80.000,-80.000
59.494,00.507,60.000,-0.003,-0.002,-80.000,-80.000
59.490,00.510,60.000,-0.002,-0.003,-80.000,-80.000
59.486,00.514,60.000,-0.003,-0.001,-80.000,-80.000
59.483,00.517,60.000,-0.002,00.000,-80.000,-80.000
59.479,00.521,60.000,-0.002,-0.003,-80.000,-80.000
59.476,00.524,60.000,-0.003,-0.002,-80.000,-80.000
59.472,00.528,60.000,-0.003,-0.000,-80.000,-80.000
59.469,00.531,60.000,-0.003,-0.001,-80.000,-80.000
59.465,00.535,60.000,-0.003,-0.003,-80.000,-80.000
59.462,00.538,60.000,-0.004,-0.001,-80.000,-80.000
59.458,00.542,60.000,-0.003,-0.000,-80.000,-80.000
59.455,00.545,60.000,-0.003,-0.002,-80.000,-80.000
59.451,00.549,60.000,-0.002,-0.002,-80.000,-80.000
59.448,00.552,60.000,-0.003,-0.000,-80.000,-80.000
59.444,00.556,60.000,-0.003,-0.001,-80.000,-80.000
59.440,00.560,60.000,-0.003,-0.003,-80.000,-80.000
59.437,00.563,60.000,-0.003,-0.002,-80.000,-80.000
59.433,00.567,60.000,-0.003,-0.000,-80.000,-80.000
59.430,00.570,60.000,-0.002,-0.002,-80.000,-80.000
59.426,00.574,60.000,-0.003,-0.003,-80.000,-80.000
59.423,00.577,60.000,-0.003,-0.000,-80.000,-80.000
59.419,00.581,60.000,-0.003,-0.001,-80.000,-80.000
59.416,00.584,60.000,-0.003,-0.003,-80.000,-80.000
59.412,00.588,60.000,-0.003,-0.002,-80.000,-80.000
59.409,00.591,60.000,-0.003,-0.000,-80.000,-80.000
59.405,00.595,60.000,-0.003,-0.002,-80.000,-80.000
59.402,00.598,60.000,-0.004,-0.003,-80.000,-80.000
59.398,00.602,60.000,-0.003,-0.001,-80.000,-80.000
59.395,00.605,60.000,-0.003,-0.001,-80.000,-80.000
59.391,00.609,60.000,-0.003,-0.003,-80.000,-80.000
59.387,00.613,60.000,-0.003,-0.002,-80.000,-80.000
59.384,00.616,60.000,-0.003,-0.000,-80.000,-80.000
59.380,00.620,60.000,-0.003,-0.002,-80.000,-80.000
59.377,00.623,60.000,-0.003,-0.003,-80.000,-80.000
59.373,00.627,60.000,-0.002,-0.001,-80.000,-80.000
59.370,00.630,60.000,-0.003,-0.001,-80.000,-80.000
59.366,00.634,60.000,-0.002,-0.003,-80.000,-80.000
59.363,00.637,60.000,-0.003,-0.002,-80.000,-80.000
59.359,00.641,60.000,-0.003,-0.000,-80.000,-80.000
59.356,00.644,60.000,-0.003,-0.002,-80.000,-80.000
59.352,00.648,60.000,-0.003,-0.003,-80.000,-80.000
59.349,00.651,60.000,-0.003,-0.001,-80.000,-80.000
59.345,00.655,60.000,-0.003,-0.000,-80.000,-80.000
59.341,00.659,60.000,-0.003,-0.003,-80.000,-80.000
59.338,00.662,60.000,-0.003,-0.003,-80.000,-80.000
59.334,00.666,60.000,-0.003,-0.001,-80.000,-80.000
59.331,00.669,60.000,-0.002,-0.002,-80.000,-80.000
59.327,00.673,60.000,-0.003,-0.003,-80.000,-80.000
59.324,00.676,60.000,-0.003,-0.001,-80.000,-80.000
59.320,00.680,60.000,-0.003,-0.000,-80.000,-80.000
59.317,00.683,60.000,-0.003,-0.003,-80.000,-80.000
59.313,00.687,60.000,-0.003,-0.003,-80.000,-80.000
59.310,00.690,60.000,-0.002,-0.001,-80.000,-80.000
59.306,00.694,60.000,-0.003,-0.001,-80.000,-80.000
59.303,00.697,60.000,-0.003,-0.003,-80.000,-80.000
59.299,00.701,60.000,-0.004,-0.002,-80.000,-80.000
59.295,00.705,60.000,-0.003,-0.000,-80.000,-80.000
59.292,00.708,60.000,-0.003,-0.002,-80.000,-80.000
59.288,00.712,60.000,-0.002,-0.003,-80.000,-80.000
59.285,00.715,60.000,-0.003,-0.000,-80.000,-80.000
59.281,00.719,60.000,-0.002,-0.001,-80.000,-80.000
59.278,00.722,60.000,-0.004,-0.002,-80.000,-80.000
59.274,00.726,60.000,-0.004,-0.002,-80.000,-80.000
59.271,00.729,60.000,-0.003,-0.000,-80.000,-80.000
59.267,00.733,60.000,-0.003,-0.002,-80.000,-80.000
59.264,00.736,60.000,-0.003,-0.003,-80.000,-80.000
59.260,00.740,60.000,-0.004,-0.001,-80.000,-80.000
59.257,00.743,60.000,-0.003,-0.000,-80.000,-80.000
59.253,00.747,60.000,-0.004,-0.003,-80.000,-80.000
59.250,00.750,60.000,-0.003,-0.002,-80.000,-80.000
59.246,00.754,60.000,-0.003,-0.001,-80.000,-80.000
59.242,00.758,60.000,-0.004,-0.001,-80.000,-80.000
59.239,00.761,60.000,-0.003,-0.003,-80.000,-80.000
59.235,00.765,60.000,-0.002,-0.001,-80.000,-80.000
59.232,00.768,60.000,-0.003,-0.000,-80.000,-80.000
59.228,00.772,60.000,-0.003,-0.003,-80.000,-80.000
59.225,00.775,60.000,-0.004,-0.003,-80.000,-80.000
59.221,00.779,60.000,-0.003,-0.001,-80.000,-80.000
59.218,00.782,60.000,-0.003,-0.001,-80.000,-80.000
59.214,00.786,60.000,-0.002,-0.003,-80.000,-80.000
59.211,00.789,60.000,-0.002,-0.001,-80.000,-80.000
59.207,00.793,60.000,-0.003,-0.000,-80.000,-80.000
59.204,00.796,60.000,-0.003,-0.002,-80.000,-80.000
59.200,00.800,60.000,-0.003,-0.003,-80.000,-80.000
59.197,00.803,60.000,-0.003,-0.001,-80.000,-80.000
59.193,00.807,60.000,-0.003,-0.001,-80.000,-80.000
59.189,00.811,60.000,-0.003,-0.003,-80.000,-80.000
59.186,00.814,60.000,-0.002,-0.002,-80.000,-80.000
59.182,00.818,60.000,-0.003,-0.000,-80.000,-80.000
59.179,00.821,60.000,-0.003,-0.002,-80.000,-80.000
59.175,00.825,60.000,-0.002,-0.003,-80.000,-80.000
59.172,00.828,60.000,-0.003,-0.001,-80.000,-80.000
59.168,00.832,60.000,-0.003,-0.001,-80.000,-80.000
59.165,00.835,60.000,-0.003,-0.003,-80.000,-80.000
59.161,00.839,60.000,-0.003,-0.002,-80.000,-80.000
59.158,00.842,60.000,-0.002,-0.000,-80.000,-80.000
59.154,00.846,60.000,-0.002,-0.001,-80.000,-80.000
59.151,00.849,60.000,-0.003,-0.003,-80.000,-80.000
59.147,00.853,60.000,-0.003,-0.001,-80.000,-80.000
59.143,00.857,60.000,-0.003,-0.001,-80.000,-80.000
59.140,00.860,60.000,-0.002,-0.003,-80.000,-80.000
59.136,00.864,60.000,-0.002,-0.002,-80.000,-80.000
59.133,00.867,60.000,-0.002,-0.001,-80.000,-80.000
59.129,00.871,60.000,-0.002,-0.001,-80.000,-80.000
59.126,00.874,60.000,-0.003,-0.003,-80.000,-80.000
59.122,00.878,60.000,-0.003,-0.002,-80.000,-80.000
59.119,00.881,60.000,-0.003,-0.000,-80.000,-80.000
59.115,00.885,60.000,-0.003,-0.002,-80.000,-80.000
59.112,00.888,60.000,-0.003,-0.002,-80.000,-80.000
59.108,00.892,60.000,-0.002,-0.001,-80.000,-80.000
59.105,00.895,60.000,-0.002,-0.001,-80.000,-80.000
59.101,00.899,60.000,-0.003,-0.003,-80.000,-80.000
59.097,00.902,60.000,-0.003,-0.002,-80.000,-80.000
59.094,00.906,60.000,-0.002,-0.001,-80.000,-80.000
59.090,00.910,60.000,-0.002,-0.002,-80.000,-80.000
59.087,00.913,60.000,-0.002,-0.003,-80.000,-80.000
59.083,00.917,60.000,-0.003,-0.001,-80.000,-80.000
59.080,00.920,60.000,-0.002,-0.001,-80.000,-80.000
59.076,00.924,60.000,-0.003,-0.002,-80.000,-80.000
59.073,00.927,60.000,-0.003,-0.003,-80.000,-80.000
59.069,00.931,60.000,-0.003,-0.001,-80.000,-80.000
59.066,00.934,60.000,-0.002,-0.002,-80.000,-80.000
59.062,00.938,60.000,-0.003,-0.003,-80.000,-80.000
59.059,00.941,60.000,-0.003,-0.002,-80.000,-80.000
59.055,00.945,60.000,-0.003,-0.001,-80.000,-80.000
59.052,00.948,60.000,-0.003,-0.002,-80.000,-80.000
59.048,00.952,60.000,-0.002,-0.003,-80.000,-80.000
59.044,00.956,60.000,-0.002,-0.001,-80.000,-80.000
59.041,00.959,60.000,-0.002,-0.001,-80.000,-80.000
59.037,00.963,60.000,-0.002,-0.003,-80.000,-80.000
59.034,00.966,60.000,-0.003,-0.002,-80.000,-80.000
59.030,00.970,60.000,-0.003,-0.000,-80.000,-80.000
59.027,00.973,60.000,-0.002,-0.002,-80.000,-80.000
59.023,00.977,60.000,-0.003,-0.002,-80.000,-80.000
59.020,00.980,60.000,-0.003,-0.001,-80.000,-80.000
59.016,00.984,60.000,-0.002,-0.001,-80.000,-80.000
59.013,00.987,60.000,-0.003,-0.003,-80.000,-80.000
59.009,00.991,60.000,-0.003,-0.002,-80.000,-80.000
59.006,00.994,60.000,-0.003,-0.001,-80.000,-80.000
59.002,00.998,60.000,-0.004,-0.002,-80.000,-80.000
58.998,01.002,60.000,-0.003,-0.003,-80.000,-80.000
58.995,01.005,60.000,-0.003,-0.001,-80.000,-80.000
58.991,01.009,60.000,-0.003,-0.001,-80.000,-80.000
58.988,01.012,60.000,-0.002,-0.002,-80.000,-80.000
58.984,01.016,60.000,-0.003,-0.003,-80.000,-80.000
58.981,01.019,60.000,-0.003,-0.000,-80.000,-80.000
58.977,01.023,60.000,-0.003,-0.002,-80.000,-80.000
58.974,01.026,60.000,-0.002,-0.003,-80.000,-80.000
58.970,01.030,60.000,-0.002,-0.002,-80.000,-80.000
58.967,01.033,60.000,-0.003,-0.000,-80.000,-80.000
58.963,01.037,60.000,-0.003,-0.002,-80.000,-80.000
58.960,01.040,60.000,-0.003,-0.003,-80.000,-80.000
58.956,01.044,60.000,-0.002,-0.001,-80.000,-80.000
58.953,01.047,60.000,-0.003,-0.001,-80.000,-80.000
58.949,01.051,60.000,-0.003,-0.003,-80.000,-80.000
58.945,01.055,60.000,-0.003,-0.002,-80.000,-80.000
58.942,01.058,60.000,-0.003,-0.001,-80.000,-80.000
58.938,01.062,60.000,-0.003,-0.002,-80.000,-80.000
58.935,01.065,60.000,-0.003,-0.003,-80.000,-80.000
58.931,01.069,60.000,-0.003,-0.001,-80.000,-80.000
58.928,01.072,60.000,-0.003,-0.001,-80.000,-80.000
58.924,01.076,60.000,-0.002,-0.003,-80.000,-80.000
58.921,01.079,60.000,-0.002,-0.002,-80.000,-80.000
58.917,01.083,60.000,-0.003,-0.001,-80.000,-80.000
58.914,01.086,60.000,-0.003,-0.002,-80.000,-80.000
58.910,01.090,60.000,-0.003,-0.003,-80.000,-80.000
58.907,01.093,60.000,-0.003,-0.002,-80.000,-80.000
58.903,01.097,60.000,-0.003,-0.001,-80.000,-80.000
58.899,01.101,60.000,-0.003,-0.002,-80.000,-80.000
58.896,01.104,60.000,-0.003,-0.003,-80.000,-80.000
58.892,01.108,60.000,-0.003,-0.000,-80.000,-80.000
