tRemaining, tElapsed, tTotal, Current, Voltage, Temp1, Temp2, 
59.997,00.003,60.000,-0.001,-0.001,-80.000,-80.000
59.993,00.007,60.000,-0.001,-0.003,-80.000,-80.000
59.990,00.010,60.000,-0.002,-0.002,-80.000,-80.000
59.986,00.014,60.000,-0.001,-0.000,-80.000,-80.000
59.983,00.017,60.000,-0.001,-0.002,-80.000,-80.000
59.979,00.021,60.000,-0.002,-0.002,-80.000,-80.000
59.976,00.024,60.000,-0.001,-0.001,-80.000,-80.000
59.972,00.028,60.000,-0.001,-0.000,-80.000,-80.000
59.969,00.031,60.000,-0.001,-0.002,-80.000,-80.000
59.965,00.035,60.000,-0.001,-0.002,-80.000,-80.000
59.962,00.038,60.000,-0.001,-0.001,-80.000,-80.000
59.958,00.042,60.000,-0.001,-0.001,-80.000,-80.000
59.954,00.046,60.000,-0.001,-0.003,-80.000,-80.000
59.951,00.049,60.000,-0.002,-0.001,-80.000,-80.000
59.947,00.053,60.000,-0.001,00.000,-80.000,-80.000
59.944,00.056,60.000,-0.001,-0.002,-80.000,-80.000
