tRemaining, tElapsed, tTotal, Current, Voltage, Temp1, Temp2, 
56.541,03.459,60.000,-0.003,-0.001,-80.000,-80.000
56.537,03.463,60.000,-0.003,-0.004,-80.000,-80.000
56.534,03.466,60.000,-0.003,-0.003,-80.000,-80.000
56.530,03.470,60.000,-0.003,00.000,-80.000,-80.000
56.527,03.473,60.000,-0.002,-0.002,-80.000,-80.000
56.523,03.477,60.000,-0.003,-0.004,-80.000,-80.000
56.520,03.481,60.000,-0.003,-0.002,-80.000,-80.000
56.516,03.484,60.000,-0.003,00.000,-80.000,-80.000
56.512,03.488,60.000,-0.003,-0.003,-80.000,-80.000
56.509,03.491,60.000,-0.004,-0.004,-80.000,-80.000
56.505,03.495,60.000,-0.004,-0.000,-80.000,-80.000
56.502,03.498,60.000,-0.002,-0.001,-80.000,-80.000
56.498,03.502,60.000,-0.003,-0.004,-80.000,-80.000
56.495,03.505,60.000,-0.003,-0.003,-80.000,-80.000
56.491,03.509,60.000,-0.003,00.000,-80.000,-80.000
56.488,03.512,60.000,-0.004,-0.002,-80.000,-80.000
56.484,03.516,60.000,-0.004,-0.004,-80.000,-80.000
56.481,03.519,60.000,-0.003,-0.001,-80.000,-80.000
56.477,03.523,60.000,-0.004,-0.000,-80.000,-80.000
56.474,03.526,60.000,-0.004,-0.003,-80.000,-80.000
56.470,03.530,60.000,-0.003,-0.004,-80.000,-80.000
56.466,03.534,60.000,-0.004,-0.000,-80.000,-80.000
56.463,03.537,60.000,-0.003,-0.000,-80.000,-80.000
56.459,03.541,60.000,-0.004,-0.004,-80.000,-80.000
56.456,03.544,60.000,-0.003,-0.002,-80.000,-80.000
56.452,03.548,60.000,-0.003,00.000,-80.000,-80.000
56.449,03.551,60.000,-0.003,-0.002,-80.000,-80.000
56.445,03.555,60.000,-0.003,-0.004,-80.000,-80.000
56.442,03.558,60.000,-0.003,-0.001,-80.000,-80.000
56.438,03.562,60.000,-0.003,00.000,-80.000,-80.000
56.435,03.565,60.000,-0.003,-0.003,-80.000,-80.000
56.431,03.569,60.000,-0.004,-0.003,-80.000,-80.000
56.428,03.572,60.000,-0.003,-0.000,-80.000,-80.000
56.424,03.576,60.000,-0.003,-0.001,-80.000,-80.000
56.421,03.579,60.000,-0.003,-0.004,-80.000,-80.000
56.417,03.583,60.000,-0.003,-0.002,-80.000,-80.000
56.413,03.587,60.000,-0.003,00.000,-80.000,-80.000
56.410,03.590,60.000,-0.003,-0.002,-80.000,-80.000
56.406,03.594,60.000,-0.003,-0.004,-80.000,-80.000
56.403,03.597,60.000,-0.003,-0.001,-80.000,-80.000
56.399,03.601,60.000,-0.003,00.000,-80.000,-80.000
56.396,03.604,60.000,-0.004,-0.003,-80.000,-80.000
56.392,03.608,60.000,-0.003,-0.004,-80.000,-80.000
56.389,03.611,60.000,-0.003,-0.000,-80.000,-80.000
56.385,03.615,60.000,-0.003,-0.001,-80.000,-80.000
56.382,03.618,60.000,-0.003,-0.004,-80.000,-80.000
56.378,03.622,60.000,-0.002,-0.003,-80.000,-80.000
56.375,03.625,60.000,-0.003,00.000,-80.000,-80.000
56.371,03.629,60.000,-0.003,-0.002,-80.000,-80.000
56.367,03.633,60.000,-0.004,-0.004,-80.000,-80.000
56.364,03.636,60.000,-0.004,-0.001,-80.000,-80.000
56.360,03.640,60.000,-0.003,00.000,-80.000,-80.000
56.357,03.643,60.000,-0.003,-0.003,-80.000,-80.000
56.353,03.647,60.000,-0.003,-0.003,-80.000,-80.000
56.350,03.650,60.000,-0.003,00.000,-80.000,-80.000
56.346,03.654,60.000,-0.003,-0.001,-80.000,-80.000
56.343,03.657,60.000,-0.004,-0.004,-80.000,-80.000
56.339,03.661,60.000,-0.004,-0.003,-80.000,-80.000
56.336,03.664,60.000,-0.003,00.000,-80.000,-80.000
56.332,03.668,60.000,-0.003,-0.002,-80.000,-80.000
56.329,03.671,60.000,-0.003,-0.004,-80.000,-80.000
56.325,03.675,60.000,-0.003,-0.001,-80.000,-80.000
56.322,03.678,60.000,-0.003,00.000,-80.000,-80.000
56.318,03.682,60.000,-0.003,-0.003,-80.000,-80.000
56.314,03.686,60.000,-0.003,-0.003,-80.000,-80.000
56.311,03.689,60.000,-0.003,-0.000,-80.000,-80.000
56.307,03.693,60.000,-0.003,-0.002,-80.000,-80.000
56.304,03.696,60.000,-0.003,-0.004,-80.000,-80.000
56.300,03.700,60.000,-0.003,-0.003,-80.000,-80.000
56.297,03.703,60.000,-0.003,00.001,-80.000,-80.000
56.293,03.707,60.000,-0.003,-0.002,-80.000,-80.000
56.290,03.710,60.000,-0.002,-0.004,-80.000,-80.000
56.286,03.714,60.000,-0.003,-0.001,-80.000,-80.000
56.283,03.717,60.000,-0.003,-0.000,-80.000,-80.000
56.279,03.721,60.000,-0.003,-0.003,-80.000,-80.000
56.276,03.724,60.000,-0.004,-0.003,-80.000,-80.000
56.272,03.728,60.000,-0.002,-0.000,-80.000,-80.000
56.268,03.732,60.000,-0.003,-0.001,-80.000,-80.000
56.265,03.735,60.000,-0.003,-0.004,-80.000,-80.000
56.261,03.739,60.000,-0.002,-0.002,-80.000,-80.000
56.258,03.742,60.000,-0.003,00.000,-80.000,-80.000
56.254,03.746,60.000,-0.004,-0.002,-80.000,-80.000
56.251,03.749,60.000,-0.003,-0.004,-80.000,-80.000
56.247,03.753,60.000,-0.004,-0.001,-80.000,-80.000
56.244,03.756,60.000,-0.003,-0.000,-80.000,-80.000
56.240,03.760,60.000,-0.003,-0.004,-80.000,-80.000
56.237,03.763,60.000,-0.004,-0.004,-80.000,-80.000
56.233,03.767,60.000,-0.004,-0.000,-80.000,-80.000
56.230,03.770,60.000,-0.003,-0.001,-80.000,-80.000
56.226,03.774,60.000,-0.003,-0.004,-80.000,-80.000
56.223,03.777,60.000,-0.003,-0.002,-80.000,-80.000
56.219,03.781,60.000,-0.003,00.000,-80.000,-80.000
56.215,03.785,60.000,-0.003,-0.002,-80.000,-80.000
56.212,03.788,60.000,-0.004,-0.004,-80.000,-80.000
56.208,03.792,60.000,-0.003,-0.001,-80.000,-80.000
56.205,03.795,60.000,-0.003,-0.000,-80.000,-80.000
56.201,03.799,60.000,-0.003,-0.003,-80.000,-80.000
56.198,03.802,60.000,-0.003,-0.003,-80.000,-80.000
56.194,03.806,60.000,-0.003,-0.000,-80.000,-80.000
56.191,03.809,60.000,-0.003,-0.001,-80.000,-80.000
56.187,03.813,60.000,-0.003,-0.004,-80.000,-80.000
56.184,03.816,60.000,-0.003,-0.002,-80.000,-80.000
56.180,03.820,60.000,-0.003,00.000,-80.000,-80.000
56.177,03.823,60.000,-0.003,-0.002,-80.000,-80.000
56.173,03.827,60.000,-0.003,-0.004,-80.000,-80.000
56.169,03.831,60.000,-0.003,-0.001,-80.000,-80.000
56.166,03.834,60.000,-0.003,-0.000,-80.000,-80.000
56.162,03.838,60.000,-0.003,-0.004,-80.000,-80.000
56.159,03.841,60.000,-0.004,-0.003,-80.000,-80.000
56.155,03.845,60.000,-0.004,00.000,-80.000,-80.000
56.152,03.848,60.000,-0.003,-0.001,-80.000,-80.000
56.148,03.852,60.000,-0.003,-0.004,-80.000,-80.000
56.145,03.855,60.000,-0.003,-0.002,-80.000,-80.000
56.141,03.859,60.000,-0.003,00.000,-80.000,-80.000
56.138,03.862,60.000,-0.003,-0.002,-80.000,-80.000
56.134,03.866,60.000,-0.003,-0.004,-80.000,-80.000
56.131,03.869,60.000,-0.003,-0.001,-80.000,-80.000
56.127,03.873,60.000,-0.003,-0.001,-80.000,-80.000
56.124,03.876,60.000,-0.003,-0.004,-80.000,-80.000
56.120,03.880,60.000,-0.003,-0.004,-80.000,-80.000
56.116,03.884,60.000,-0.004,00.000,-80.000,-80.000
56.113,03.887,60.000,-0.002,-0.002,-80.000,-80.000
56.109,03.891,60.000,-0.003,-0.004,-80.000,-80.000
56.106,03.894,60.000,-0.003,-0.002,-80.000,-80.000
56.102,03.898,60.000,-0.003,00.000,-80.000,-80.000
56.099,03.901,60.000,-0.003,-0.003,-80.000,-80.000
56.095,03.905,60.000,-0.004,-0.004,-80.000,-80.000
56.092,03.908,60.000,-0.003,-0.001,-80.000,-80.000
56.088,03.912,60.000,-0.003,-0.000,-80.000,-80.000
56.085,03.915,60.000,-0.003,-0.004,-80.000,-80.000
56.081,03.919,60.000,-0.002,-0.003,-80.000,-80.000
56.078,03.922,60.000,-0.002,00.000,-80.000,-80.000
56.074,03.926,60.000,-0.003,-0.002,-80.000,-80.000
56.070,03.930,60.000,-0.003,-0.005,-80.000,-80.000
56.067,03.933,60.000,-0.003,-0.002,-80.000,-80.000
56.063,03.937,60.000,-0.003,00.000,-80.000,-80.000
56.060,03.940,60.000,-0.003,-0.003,-80.000,-80.000
56.056,03.944,60.000,-0.003,-0.004,-80.000,-80.000
56.053,03.947,60.000,-0.003,-0.001,-80.000,-80.000
56.049,03.951,60.000,-0.003,00.000,-80.000,-80.000
56.046,03.954,60.000,-0.003,-0.004,-80.000,-80.000
56.042,03.958,60.000,-0.003,-0.003,-80.000,-80.000
56.039,03.961,60.000,-0.004,00.000,-80.000,-80.000
56.035,03.965,60.000,-0.003,-0.002,-80.000,-80.000
56.032,03.968,60.000,-0.003,-0.005,-80.000,-80.000
56.028,03.972,60.000,-0.003,-0.002,-80.000,-80.000
56.024,03.975,60.000,-0.004,-0.000,-80.000,-80.000
56.021,03.979,60.000,-0.003,-0.003,-80.000,-80.000
56.017,03.983,60.000,-0.003,-0.004,-80.000,-80.000
56.014,03.986,60.000,-0.004,-0.001,-80.000,-80.000
56.010,03.990,60.000,-0.004,-0.000,-80.000,-80.000
56.007,03.993,60.000,-0.004,-0.004,-80.000,-80.000
56.003,03.997,60.000,-0.003,-0.003,-80.000,-80.000
56.000,04.000,60.000,-0.003,00.000,-80.000,-80.000
55.996,04.004,60.000,-0.003,-0.001,-80.000,-80.000
55.993,04.007,60.000,-0.003,-0.004,-80.000,-80.000
55.989,04.011,60.000,-0.003,-0.002,-80.000,-80.000
55.986,04.014,60.000,-0.003,00.000,-80.000,-80.000
55.982,04.018,60.000,-0.003,-0.003,-80.000,-80.000
55.979,04.021,60.000,-0.003,-0.004,-80.000,-80.000
55.975,04.025,60.000,-0.003,-0.001,-80.000,-80.000
55.971,04.029,60.000,-0.003,-0.000,-80.000,-80.000
55.968,04.032,60.000,-0.004,-0.004,-80.000,-80.000
55.964,04.036,60.000,-0.003,-0.003,-80.000,-80.000
55.961,04.039,60.000,-0.003,-0.000,-80.000,-80.000
55.957,04.043,60.000,-0.003,-0.001,-80.000,-80.000
55.954,04.046,60.000,-0.003,-0.005,-80.000,-80.000
55.950,04.050,60.000,-0.004,-0.002,-80.000,-80.000
55.947,04.053,60.000,-0.004,00.000,-80.000,-80.000
55.943,04.057,60.000,-0.003,-0.002,-80.000,-80.000
55.940,04.060,60.000,-0.003,-0.004,-80.000,-80.000
55.936,04.064,60.000,-0.003,-0.001,-80.000,-80.000
55.933,04.067,60.000,-0.004,-0.001,-80.000,-80.000
55.929,04.071,60.000,-0.004,-0.004,-80.000,-80.000
55.926,04.074,60.000,-0.003,-0.003,-80.000,-80.000
55.922,04.078,60.000,-0.004,-0.000,-80.000,-80.000
55.918,04.082,60.000,-0.003,-0.002,-80.000,-80.000
55.915,04.085,60.000,-0.002,-0.005,-80.000,-80.000
55.911,04.089,60.000,-0.003,-0.002,-80.000,-80.000
55.908,04.092,60.000,-0.003,00.000,-80.000,-80.000
55.904,04.096,60.000,-0.004,-0.003,-80.000,-80.000
55.901,04.099,60.000,-0.002,-0.004,-80.000,-80.000
55.897,04.103,60.000,-0.004,-0.001,-80.000,-80.000
55.894,04.106,60.000,-0.003,-0.000,-80.000,-80.000
55.890,04.110,60.000,-0.003,-0.004,-80.000,-80.000
55.887,04.113,60.000,-0.003,-0.003,-80.000,-80.000
55.883,04.117,60.000,-0.003,-0.000,-80.000,-80.000
55.880,04.120,60.000,-0.003,-0.002,-80.000,-80.000
55.876,04.124,60.000,-0.002,-0.004,-80.000,-80.000
55.872,04.128,60.000,-0.003,-0.002,-80.000,-80.000
55.869,04.131,60.000,-0.002,-0.000,-80.000,-80.000
55.865,04.135,60.000,-0.003,-0.003,-80.000,-80.000
55.862,04.138,60.000,-0.003,-0.004,-80.000,-80.000
55.858,04.142,60.000,-0.003,-0.001,-80.000,-80.000
55.855,04.145,60.000,-0.003,-0.001,-80.000,-80.000
55.851,04.149,60.000,-0.003,-0.004,-80.000,-80.000
55.848,04.152,60.000,-0.002,-0.003,-80.000,-80.000
55.844,04.156,60.000,-0.002,00.000,-80.000,-80.000
55.841,04.159,60.000,-0.003,-0.002,-80.000,-80.000
55.837,04.163,60.000,-0.003,-0.005,-80.000,-80.000
55.834,04.166,60.000,-0.004,-0.002,-80.000,-80.000
55.830,04.170,60.000,-0.003,00.000,-80.000,-80.000
55.827,04.173,60.000,-0.003,-0.003,-80.000,-80.000
55.823,04.177,60.000,-0.003,-0.004,-80.000,-80.000
55.819,04.181,60.000,-0.003,-0.001,-80.000,-80.000
55.816,04.184,60.000,-0.003,-0.001,-80.000,-80.000
55.812,04.188,60.000,-0.003,-0.004,-80.000,-80.000
55.809,04.191,60.000,-0.003,-0.003,-80.000,-80.000
55.805,04.195,60.000,-0.002,-0.000,-80.000,-80.000
55.802,04.198,60.000,-0.003,-0.002,-80.000,-80.000
55.798,04.202,60.000,-0.003,-0.004,-80.000,-80.000
55.795,04.205,60.000,-0.003,-0.002,-80.000,-80.000
55.791,04.209,60.000,-0.002,-0.000,-80.000,-80.000
55.788,04.212,60.000,-0.003,-0.003,-80.000,-80.000
55.784,04.216,60.000,-0.003,-0.004,-80.000,-80.000
55.781,04.219,60.000,-0.003,-0.001,-80.000,-80.000
55.777,04.223,60.000,-0.003,-0.001,-80.000,-80.000
55.773,04.227,60.000,-0.003,-0.004,-80.000,-80.000
55.770,04.230,60.000,-0.003,-0.003,-80.000,-80.000
55.766,04.234,60.000,-0.003,00.000,-80.000,-80.000
55.763,04.237,60.000,-0.004,-0.002,-80.000,-80.000
55.759,04.241,60.000,-0.003,-0.004,-80.000,-80.000
55.756,04.244,60.000,-0.003,-0.002,-80.000,-80.000
55.752,04.248,60.000,-0.003,00.000,-80.000,-80.000
55.749,04.251,60.000,-0.002,-0.003,-80.000,-80.000
55.745,04.255,60.000,-0.004,-0.004,-80.000,-80.000
55.742,04.258,60.000,-0.004,-0.001,-80.000,-80.000
55.738,04.262,60.000,-0.003,-0.001,-80.000,-80.000
55.735,04.265,60.000,-0.004,-0.004,-80.000,-80.000
55.731,04.269,60.000,-0.003,-0.002,-80.000,-80.000
55.727,04.272,60.000,-0.003,-0.001,-80.000,-80.000
55.724,04.276,60.000,-0.003,-0.002,-80.000,-80.000
55.720,04.280,60.000,-0.003,-0.004,-80.000,-80.000
55.717,04.283,60.000,-0.003,-0.002,-80.000,-80.000
55.713,04.287,60.000,-0.003,-0.000,-80.000,-80.000
55.710,04.290,60.000,-0.003,-0.003,-80.000,-80.000
55.706,04.294,60.000,-0.003,-0.003,-80.000,-80.000
55.703,04.297,60.000,-0.003,-0.001,-80.000,-80.000
55.699,04.301,60.000,-0.004,-0.001,-80.000,-80.000
55.696,04.304,60.000,-0.003,-0.003,-80.000,-80.000
55.692,04.308,60.000,-0.003,-0.002,-80.000,-80.000
55.689,04.311,60.000,-0.003,-0.001,-80.000,-80.000
55.685,04.315,60.000,-0.004,-0.002,-80.000,-80.000
55.682,04.318,60.000,-0.003,-0.003,-80.000,-80.000
55.678,04.322,60.000,-0.003,-0.001,-80.000,-80.000
55.674,04.326,60.000,-0.003,-0.001,-80.000,-80.000
55.671,04.329,60.000,-0.003,-0.003,-80.000,-80.000
55.667,04.333,60.000,-0.003,-0.003,-80.000,-80.000
55.664,04.336,60.000,-0.004,-0.000,-80.000,-80.000
55.660,04.340,60.000,-0.004,-0.002,-80.000,-80.000
55.657,04.343,60.000,-0.003,-0.004,-80.000,-80.000
55.653,04.347,60.000,-0.003,-0.002,-80.000,-80.000
55.650,04.350,60.000,-0.003,-0.001,-80.000,-80.000
55.646,04.354,60.000,-0.004,-0.003,-80.000,-80.000
55.643,04.357,60.000,-0.003,-0.003,-80.000,-80.000
55.639,04.361,60.000,-0.003,-0.001,-80.000,-80.000
55.636,04.364,60.000,-0.004,-0.001,-80.000,-80.000
55.632,04.368,60.000,-0.003,-0.003,-80.000,-80.000
55.628,04.372,60.000,-0.003,-0.003,-80.000,-80.000
55.625,04.375,60.000,-0.003,-0.000,-80.000,-80.000
55.621,04.379,60.000,-0.003,-0.002,-80.000,-80.000
55.618,04.382,60.000,-0.004,-0.003,-80.000,-80.000
55.614,04.386,60.000,-0.003,-0.002,-80.000,-80.000
55.611,04.389,60.000,-0.003,-0.001,-80.000,-80.000
55.607,04.393,60.000,-0.003,-0.003,-80.000,-80.000
55.604,04.396,60.000,-0.004,-0.003,-80.000,-80.000
55.600,04.400,60.000,-0.002,-0.001,-80.000,-80.000
55.597,04.403,60.000,-0.003,-0.001,-80.000,-80.000
55.593,04.407,60.000,-0.003,-0.003,-80.000,-80.000
55.590,04.410,60.000,-0.003,-0.002,-80.000,-80.000
55.586,04.414,60.000,-0.003,-0.001,-80.000,-80.000
55.583,04.417,60.000,-0.003,-0.002,-80.000,-80.000
55.579,04.421,60.000,-0.003,-0.004,-80.000,-80.000
55.575,04.425,60.000,-0.003,-0.001,-80.000,-80.000
55.572,04.428,60.000,-0.004,-0.001,-80.000,-80.000
55.568,04.432,60.000,-0.003,-0.003,-80.000,-80.000
55.565,04.435,60.000,-0.003,-0.003,-80.000,-80.000
55.561,04.439,60.000,-0.004,-0.000,-80.000,-80.000
55.558,04.442,60.000,-0.004,-0.001,-80.000,-80.000
55.554,04.446,60.000,-0.004,-0.004,-80.000,-80.000
55.551,04.449,60.000,-0.003,-0.002,-80.000,-80.000
55.547,04.453,60.000,-0.003,-0.001,-80.000,-80.000
55.544,04.456,60.000,-0.003,-0.003,-80.000,-80.000
55.540,04.460,60.000,-0.003,-0.003,-80.000,-80.000
55.537,04.463,60.000,-0.004,-0.001,-80.000,-80.000
55.533,04.467,60.000,-0.004,-0.001,-80.000,-80.000
55.529,04.471,60.000,-0.004,-0.004,-80.000,-80.000
55.526,04.474,60.000,-0.003,-0.003,-80.000,-80.000
55.522,04.478,60.000,-0.003,-0.001,-80.000,-80.000
55.519,04.481,60.000,-0.003,-0.002,-80.000,-80.000
55.515,04.485,60.000,-0.003,-0.004,-80.000,-80.000
55.512,04.488,60.000,-0.004,-0.002,-80.000,-80.000
55.508,04.492,60.000,-0.003,-0.000,-80.000,-80.000
55.505,04.495,60.000,-0.003,-0.003,-80.000,-80.000
55.501,04.499,60.000,-0.003,-0.004,-80.000,-80.000
55.498,04.502,60.000,-0.003,-0.000,-80.000,-80.000
55.494,04.506,60.000,-0.003,-0.001,-80.000,-80.000
55.491,04.509,60.000,-0.003,-0.004,-80.000,-80.000
55.487,04.513,60.000,-0.003,-0.003,-80.000,-80.000
55.484,04.516,60.000,-0.004,00.000,-80.000,-80.000
55.480,04.520,60.000,-0.003,-0.002,-80.000,-80.000
55.476,04.524,60.000,-0.003,-0.004,-80.000,-80.000
55.473,04.527,60.000,-0.004,-0.002,-80.000,-80.000
55.469,04.531,60.000,-0.004,-0.000,-80.000,-80.000
55.466,04.534,60.000,-0.004,-0.004,-80.000,-80.000
55.462,04.538,60.000,-0.003,-0.003,-80.000,-80.000
55.459,04.541,60.000,-0.003,-0.000,-80.000,-80.000
55.455,04.545,60.000,-0.003,-0.001,-80.000,-80.000
55.452,04.548,60.000,-0.003,-0.004,-80.000,-80.000
55.448,04.552,60.000,-0.003,-0.002,-80.000,-80.000
55.445,04.555,60.000,-0.003,00.000,-80.000,-80.000
55.441,04.559,60.000,-0.003,-0.003,-80.000,-80.000
55.438,04.562,60.000,-0.003,-0.004,-80.000,-80.000
55.434,04.566,60.000,-0.003,-0.001,-80.000,-80.000
55.430,04.570,60.000,-0.003,-0.000,-80.000,-80.000
55.427,04.573,60.000,-0.003,-0.004,-80.000,-80.000
55.423,04.577,60.000,-0.003,-0.003,-80.000,-80.000
55.420,04.580,60.000,-0.003,00.000,-80.000,-80.000
55.416,04.584,60.000,-0.003,-0.001,-80.000,-80.000
55.413,04.587,60.000,-0.003,-0.004,-80.000,-80.000
55.409,04.591,60.000,-0.003,-0.002,-80.000,-80.000
55.406,04.594,60.000,-0.003,-0.000,-80.000,-80.000
55.402,04.598,60.000,-0.003,-0.003,-80.000,-80.000
55.399,04.601,60.000,-0.003,-0.004,-80.000,-80.000
55.395,04.605,60.000,-0.003,-0.001,-80.000,-80.000
55.392,04.608,60.000,-0.003,-0.000,-80.000,-80.000
55.388,04.612,60.000,-0.003,-0.005,-80.000,-80.000
55.385,04.615,60.000,-0.003,-0.003,-80.000,-80.000
55.381,04.619,60.000,-0.003,00.001,-80.000,-80.000
55.377,04.623,60.000,-0.003,-0.003,-80.000,-80.000
55.374,04.626,60.000,-0.004,-0.004,-80.000,-80.000
55.370,04.630,60.000,-0.003,-0.001,-80.000,-80.000
55.367,04.633,60.000,-0.003,-0.001,-80.000,-80.000
55.363,04.637,60.000,-0.003,-0.004,-80.000,-80.000
55.360,04.640,60.000,-0.003,-0.003,-80.000,-80.000
55.356,04.644,60.000,-0.003,00.000,-80.000,-80.000
55.353,04.647,60.000,-0.003,-0.001,-80.000,-80.000
55.349,04.651,60.000,-0.003,-0.004,-80.000,-80.000
55.346,04.654,60.000,-0.003,-0.002,-80.000,-80.000
55.342,04.658,60.000,-0.003,00.000,-80.000,-80.000
55.339,04.661,60.000,-0.003,-0.003,-80.000,-80.000
55.335,04.665,60.000,-0.003,-0.004,-80.000,-80.000
55.331,04.668,60.000,-0.003,-0.001,-80.000,-80.000
55.328,04.672,60.000,-0.003,-0.000,-80.000,-80.000
55.324,04.676,60.000,-0.003,-0.004,-80.000,-80.000
55.321,04.679,60.000,-0.003,-0.003,-80.000,-80.000
55.317,04.683,60.000,-0.003,00.000,-80.000,-80.000
55.314,04.686,60.000,-0.003,-0.002,-80.000,-80.000
55.310,04.690,60.000,-0.002,-0.005,-80.000,-80.000
55.307,04.693,60.000,-0.003,-0.002,-80.000,-80.000
55.303,04.697,60.000,-0.003,00.000,-80.000,-80.000
55.300,04.700,60.000,-0.003,-0.003,-80.000,-80.000
55.296,04.704,60.000,-0.003,-0.004,-80.000,-80.000
55.293,04.707,60.000,-0.003,-0.000,-80.000,-80.000
55.289,04.711,60.000,-0.003,-0.001,-80.000,-80.000
55.286,04.714,60.000,-0.003,-0.005,-80.000,-80.000
55.282,04.718,60.000,-0.003,-0.003,-80.000,-80.000
55.278,04.722,60.000,-0.003,00.000,-80.000,-80.000
55.275,04.725,60.000,-0.003,-0.002,-80.000,-80.000
55.271,04.729,60.000,-0.003,-0.004,-80.000,-80.000
55.268,04.732,60.000,-0.002,-0.001,-80.000,-80.000
55.264,04.736,60.000,-0.003,00.000,-80.000,-80.000
55.261,04.739,60.000,-0.004,-0.004,-80.000,-80.000
55.257,04.743,60.000,-0.003,-0.003,-80.000,-80.000
55.254,04.746,60.000,-0.003,00.001,-80.000,-80.000
55.250,04.750,60.000,-0.004,-0.002,-80.000,-80.000
55.247,04.753,60.000,-0.003,-0.005,-80.000,-80.000
55.243,04.757,60.000,-0.002,-0.002,-80.000,-80.000
55.240,04.760,60.000,-0.003,00.000,-80.000,-80.000
55.236,04.764,60.000,-0.003,-0.003,-80.000,-80.000
55.232,04.768,60.000,-0.003,-0.004,-80.000,-80.000
55.229,04.771,60.000,-0.004,-0.000,-80.000,-80.000
55.225,04.775,60.000,-0.003,-0.000,-80.000,-80.000
55.222,04.778,60.000,-0.003,-0.004,-80.000,-80.000
55.218,04.782,60.000,-0.003,-0.003,-80.000,-80.000
55.215,04.785,60.000,-0.003,00.000,-80.000,-80.000
55.211,04.789,60.000,-0.003,-0.002,-80.000,-80.000
55.208,04.792,60.000,-0.003,-0.004,-80.000,-80.000
55.204,04.796,60.000,-0.003,-0.001,-80.000,-80.000
55.201,04.799,60.000,-0.003,00.000,-80.000,-80.000
55.197,04.803,60.000,-0.003,-0.003,-80.000,-80.000
55.194,04.806,60.000,-0.003,-0.004,-80.000,-80.000
55.190,04.810,60.000,-0.004,-0.000,-80.000,-80.000
55.187,04.813,60.000,-0.004,-0.001,-80.000,-80.000
55.183,04.817,60.000,-0.003,-0.004,-80.000,-80.000
55.179,04.821,60.000,-0.003,-0.002,-80.000,-80.000
55.176,04.824,60.000,-0.003,00.000,-80.000,-80.000
55.172,04.828,60.000,-0.004,-0.003,-80.000,-80.000
55.169,04.831,60.000,-0.003,-0.004,-80.000,-80.000
55.165,04.835,60.000,-0.003,-0.001,-80.000,-80.000
55.162,04.838,60.000,-0.004,-0.000,-80.000,-80.000
55.158,04.842,60.000,-0.004,-0.004,-80.000,-80.000
55.155,04.845,60.000,-0.003,-0.003,-80.000,-80.000
55.151,04.849,60.000,-0.004,00.000,-80.000,-80.000
55.148,04.852,60.000,-0.004,-0.001,-80.000,-80.000
55.144,04.856,60.000,-0.004,-0.004,-80.000,-80.000
55.141,04.859,60.000,-0.003,-0.002,-80.000,-80.000
55.137,04.863,60.000,-0.003,-0.000,-80.000,-80.000
55.133,04.867,60.000,-0.004,-0.003,-80.000,-80.000
55.130,04.870,60.000,-0.003,-0.004,-80.000,-80.000
55.126,04.874,60.000,-0.003,-0.000,-80.000,-80.000
55.123,04.877,60.000,-0.003,-0.001,-80.000,-80.000
55.119,04.881,60.000,-0.004,-0.004,-80.000,-80.000
55.116,04.884,60.000,-0.003,-0.003,-80.000,-80.000
55.112,04.888,60.000,-0.003,00.000,-80.000,-80.000
55.109,04.891,60.000,-0.004,-0.002,-80.000,-80.000
55.105,04.895,60.000,-0.003,-0.004,-80.000,-80.000
55.102,04.898,60.000,-0.003,-0.001,-80.000,-80.000
55.098,04.902,60.000,-0.004,00.000,-80.000,-80.000
55.095,04.905,60.000,-0.004,-0.004,-80.000,-80.000
55.091,04.909,60.000,-0.003,-0.004,-80.000,-80.000
55.088,04.912,60.000,-0.004,00.000,-80.000,-80.000
55.084,04.916,60.000,-0.003,-0.001,-80.000,-80.000
55.080,04.920,60.000,-0.003,-0.004,-80.000,-80.000
55.077,04.923,60.000,-0.003,-0.002,-80.000,-80.000
55.073,04.927,60.000,-0.004,00.000,-80.000,-80.000
55.070,04.930,60.000,-0.003,-0.003,-80.000,-80.000
55.066,04.934,60.000,-0.003,-0.005,-80.000,-80.000
55.063,04.937,60.000,-0.004,-0.001,-80.000,-80.000
55.059,04.941,60.000,-0.004,-0.000,-80.000,-80.000
55.056,04.944,60.000,-0.003,-0.004,-80.000,-80.000
55.052,04.948,60.000,-0.003,-0.003,-80.000,-80.000
55.049,04.951,60.000,-0.004,00.000,-80.000,-80.000
55.045,04.955,60.000,-0.003,-0.001,-80.000,-80.000
55.042,04.958,60.000,-0.003,-0.004,-80.000,-80.000
55.038,04.962,60.000,-0.003,-0.002,-80.000,-80.000
55.034,04.966,60.000,-0.003,00.000,-80.000,-80.000
55.031,04.969,60.000,-0.003,-0.004,-80.000,-80.000
55.027,04.973,60.000,-0.004,-0.004,-80.000,-80.000
55.024,04.976,60.000,-0.003,-0.000,-80.000,-80.000
55.020,04.980,60.000,-0.004,-0.001,-80.000,-80.000
55.017,04.983,60.000,-0.003,-0.004,-80.000,-80.000
55.013,04.987,60.000,-0.003,-0.003,-80.000,-80.000
55.010,04.990,60.000,-0.003,00.000,-80.000,-80.000
55.006,04.994,60.000,-0.003,-0.002,-80.000,-80.000
55.003,04.997,60.000,-0.003,-0.005,-80.000,-80.000
54.999,05.001,60.000,-0.003,-0.002,-80.000,-80.000
54.996,05.004,60.000,-0.002,00.000,-80.000,-80.000
54.992,05.008,60.000,-0.004,-0.004,-80.000,-80.000
54.989,05.011,60.000,-0.004,-0.004,-80.000,-80.000
54.985,05.015,60.000,-0.003,-0.000,-80.000,-80.000
54.981,05.019,60.000,-0.003,-0.001,-80.000,-80.000
54.978,05.022,60.000,-0.002,-0.005,-80.000,-80.000
54.974,05.026,60.000,-0.003,-0.002,-80.000,-80.000
54.971,05.029,60.000,-0.004,00.000,-80.000,-80.000
54.967,05.033,60.000,-0.003,-0.002,-80.000,-80.000
54.964,05.036,60.000,-0.004,-0.004,-80.000,-80.000
54.960,05.040,60.000,-0.003,-0.001,-80.000,-80.000
54.957,05.043,60.000,-0.003,-0.001,-80.000,-80.000
54.953,05.047,60.000,-0.003,-0.004,-80.000,-80.000
54.950,05.050,60.000,-0.004,-0.003,-80.000,-80.000
54.946,05.054,60.000,-0.003,00.000,-80.000,-80.000
54.943,05.057,60.000,-0.003,-0.001,-80.000,-80.000
54.939,05.061,60.000,-0.004,-0.004,-80.000,-80.000
54.935,05.065,60.000,-0.003,-0.002,-80.000,-80.000
54.932,05.068,60.000,-0.004,00.000,-80.000,-80.000
54.928,05.072,60.000,-0.005,-0.003,-80.000,-80.000
54.925,05.075,60.000,-0.003,-0.004,-80.000,-80.000
54.921,05.079,60.000,-0.004,-0.000,-80.000,-80.000
54.918,05.082,60.000,-0.003,-0.000,-80.000,-80.000
54.914,05.086,60.000,-0.003,-0.004,-80.000,-80.000
54.911,05.089,60.000,-0.003,-0.003,-80.000,-80.000
54.907,05.093,60.000,-0.003,00.001,-80.000,-80.000
54.904,05.096,60.000,-0.004,-0.002,-80.000,-80.000
54.900,05.100,60.000,-0.003,-0.004,-80.000,-80.000
54.897,05.103,60.000,-0.004,-0.002,-80.000,-80.000
54.893,05.107,60.000,-0.004,00.000,-80.000,-80.000
54.890,05.110,60.000,-0.003,-0.003,-80.000,-80.000
54.886,05.114,60.000,-0.003,-0.004,-80.000,-80.000
54.882,05.118,60.000,-0.004,-0.001,-80.000,-80.000
54.879,05.121,60.000,-0.004,-0.001,-80.000,-80.000
54.875,05.125,60.000,-0.003,-0.005,-80.000,-80.000
54.872,05.128,60.000,-0.004,-0.002,-80.000,-80.000
54.868,05.132,60.000,-0.003,00.000,-80.000,-80.000
54.865,05.135,60.000,-0.004,-0.002,-80.000,-80.000
54.861,05.139,60.000,-0.004,-0.004,-80.000,-80.000
54.858,05.142,60.000,-0.004,-0.001,-80.000,-80.000
54.854,05.146,60.000,-0.003,-0.000,-80.000,-80.000
54.851,05.149,60.000,-0.004,-0.004,-80.000,-80.000
54.847,05.153,60.000,-0.004,-0.004,-80.000,-80.000
54.844,05.156,60.000,-0.004,-0.00