tRemaining, tElapsed, tTotal, Current, Voltage, Temp1, Temp2, 
1379.997,00.003,1380.000,00.000,-0.004,-80.000,-80.000
1379.993,00.007,1380.000,-0.001,-0.026,-80.000,-80.000
1379.990,00.010,1380.000,-0.001,00.009,-80.000,-80.000
1379.986,00.014,1380.000,00.000,00.021,-80.000,-80.000
1379.983,00.017,1380.000,00.000,-0.017,-80.000,-80.000
1379.979,00.021,1380.000,-0.000,-0.019,-80.000,-80.000
1379.976,00.024,1380.000,-0.000,00.018,-80.000,-80.000
1379.972,00.028,1380.000,-0.000,00.012,-80.000,-80.000
1379.969,00.031,1380.000,00.000,-0.025,-80.000,-80.000
1379.965,00.035,1380.000,-0.000,-0.008,-80.000,-80.000
1379.962,00.038,1380.000,-0.000,00.023,-80.000,-80.000
1379.958,00.042,1380.000,-0.000,00.000,-80.000,-80.000
1379.954,00.046,1380.000,-0.000,-0.027,-80.000,-80.000
1379.951,00.049,1380.000,-0.000,00.005,-80.000,-80.000
1379.947,00.053,1380.000,-0.000,00.022,-80.000,-80.000
1379.944,00.056,1380.000,00.000,-0.013,-80.000,-80.000
1379.940,00.060,1380.000,-0.001,-0.022,-80.000,-80.000
1379.937,00.063,1380.000,-0.001,00.015,-80.000,-80.000
1379.933,00.067,1380.000,-0.000,00.016,-80.000,-80.000
1379.930,00.070,1380.000,-0.000,-0.023,-80.000,-80.000
1379.926,00.074,1380.000,-0.001,-0.012,-80.000,-80.000
1379.923,00.077,1380.000,00.000,00.022,-80.000,-80.000
1379.919,00.081,1380.000,-0.001,00.004,-80.000,-80.000
1379.916,00.084,1380.000,00.000,-0.027,-80.000,-80.000
1379.912,00.088,1380.000,-0.001,00.001,-80.000,-80.000
1379.909,00.091,1380.000,-0.001,00.023,-80.000,-80.000
1379.905,00.095,1380.000,-0.000,-0.009,-80.000,-80.000
1379.901,00.099,1380.000,-0.001,-0.023,-80.000,-80.000
1379.898,00.102,1380.000,-0.000,00.010,-80.000,-80.000
1379.894,00.106,1380.000,-0.000,00.015,-80.000,-80.000
1379.891,00.109,1380.000,-0.000,-0.018,-80.000,-80.000
1379.887,00.113,1380.000,-0.000,-0.013,-80.000,-80.000
1379.884,00.116,1380.000,-0.001,00.017,-80.000,-80.000
1379.880,00.120,1380.000,00.000,00.006,-80.000,-80.000
1379.877,00.123,1380.000,-0.000,-0.023,-80.000,-80.000
1379.873,00.127,1380.000,00.000,-0.003,-80.000,-80.000
1379.870,00.130,1380.000,-0.000,00.019,-80.000,-80.000
1379.866,00.134,1380.000,00.000,-0.005,-80.000,-80.000
1379.863,00.137,1380.000,-0.000,-0.022,-80.000,-80.000
1379.859,00.141,1380.000,-0.000,00.008,-80.000,-80.000
1379.855,00.145,1380.000,-0.000,00.017,-80.000,-80.000
1379.852,00.148,1380.000,00.000,-0.016,-80.000,-80.000
1379.848,00.152,1380.000,00.000,-0.016,-80.000,-80.000
1379.845,00.155,1380.000,-0.000,00.016,-80.000,-80.000
1379.841,00.159,1380.000,00.000,00.009,-80.000,-80.000
1379.838,00.162,1380.000,00.000,-0.023,-80.000,-80.000
1379.834,00.166,1380.000,-0.001,-0.006,-80.000,-80.000
1379.831,00.169,1380.000,00.001,00.020,-80.000,-80.000
1379.827,00.173,1380.000,00.000,-0.001,-80.000,-80.000
1379.824,00.176,1380.000,-0.000,-0.023,-80.000,-80.000
1379.820,00.180,1380.000,-0.000,00.004,-80.000,-80.000
1379.817,00.183,1380.000,00.000,00.018,-80.000,-80.000
1379.813,00.187,1380.000,00.000,-0.012,-80.000,-80.000
1379.810,00.191,1380.000,-0.000,-0.018,-80.000,-80.000
1379.806,00.194,1380.000,00.000,00.013,-80.000,-80.000
1379.802,00.198,1380.000,00.000,00.012,-80.000,-80.000
1379.799,00.201,1380.000,-0.000,-0.020,-80.000,-80.000
1379.795,00.205,1380.000,-0.000,-0.009,-80.000,-80.000
1379.792,00.208,1380.000,00.000,00.019,-80.000,-80.000
1379.788,00.212,1380.000,00.000,00.002,-80.000,-80.000
1379.785,00.215,1380.000,00.001,-0.024,-80.000,-80.000
1379.781,00.219,1380.000,-0.000,00.002,-80.000,-80.000
1379.778,00.222,1380.000,-0.000,00.019,-80.000,-80.000
1379.774,00.226,1380.000,00.000,-0.010,-80.000,-80.000
1379.771,00.229,1380.000,-0.000,-0.020,-80.000,-80.000
1379.767,00.233,1380.000,00.000,00.012,-80.000,-80.000
1379.764,00.236,1380.000,00.000,00.014,-80.000,-80.000
1379.760,00.240,1380.000,00.001,-0.019,-80.000,-80.000
1379.756,00.244,1380.000,-0.000,-0.011,-80.000,-80.000
1379.753,00.247,1380.000,00.000,00.018,-80.000,-80.000
1379.749,00.251,1380.000,-0.001,00.004,-80.000,-80.000
1379.746,00.254,1380.000,00.000,-0.023,-80.000,-80.000
1379.742,00.258,1380.000,00.000,-0.001,-80.000,-80.000
1379.739,00.261,13