tRemaining, tElapsed, tTotal, Current, Voltage, Temp1, Temp2, 
55.259,04.741,60.000,-0.003,-0.001,21.566,-80.000
55.256,04.744,60.000,-0.002,-0.000,21.565,-80.000
55.252,04.748,60.000,-0.003,-0.002,21.564,-80.000
55.249,04.751,60.000,-0.003,-0.002,21.563,-80.000
55.245,04.755,60.000,-0.003,-0.001,21.562,-80.000
55.242,04.758,60.000,-0.003,-0.000,21.561,-80.000
55.238,04.762,60.000,-0.003,-0.002,21.560,-80.000
55.235,04.765,60.000,-0.003,-0.002,21.560,-80.000
55.231,04.769,60.000,-0.003,-0.000,21.559,-80.000
55.228,04.772,60.000,-0.002,-0.001,21.559,-80.000
55.224,04.776,60.000,-0.003,-0.002,21.558,-80.000
55.221,04.779,60.000,-0.004,-0.001,21.558,-80.000
55.217,04.783,60.000,-0.004,-0.000,21.557,-80.000
55.213,04.787,60.000,-0.003,-0.002,21.557,-80.000
55.210,04.790,60.000,-0.002,-0.002,21.556,-80.000
55.206,04.794,60.000,-0.004,-0.001,21.555,-80.000
55.203,04.797,60.000,-0.003,-0.000,21.554,-80.000
55.199,04.801,60.000,-0.003,-0.002,21.553,-80.000
55.196,04.804,60.000,-0.004,-0.002,21.552,-80.000
55.192,04.808,60.000,-0.003,-0.000,21.552,-80.000
55.189,04.811,60.000,-0.003,-0.001,21.551,-80.000
55.185,04.815,60.000,-0.004,-0.002,21.551,-80.000
55.182,04.818,60.000,-0.004,-0.002,21.550,-80.000
55.178,04.822,60.000,-0.003,-0.000,21.550,-80.000
55.175,04.825,60.000,-0.004,-0.001,21.550,-80.000
55.171,04.829,60.000,-0.004,-0.002,21.550,-80.000
55.167,04.833,60.000,-0.003,-0.001,21.550,-80.000
55.164,04.836,60.000,-0.003,-0.000,21.550,-80.000
55.160,04.840,60.000,-0.003,-0.002,21.549,-80.000
55.157,04.843,60.000,-0.003,-0.002,21.549,-80.000
55.153,04.847,60.000,-0.003,-0.000,21.549,-80.000
55.150,04.850,60.000,-0.003,-0.001,21.548,-80.000
55.146,04.854,60.000,-0.003,-0.002,21.548,-80.000
55.143,04.857,60.000,-0.004,-0.002,21.548,-80.000
55.139,04.861,60.000,-0.003,-0.000,21.548,-80.000
55.136,04.864,60.000,-0.003,-0.000,21.548,-80.000
55.132,04.868,60.000,-0.004,-0.002,21.547,-80.000
55.129,04.871,60.000,-0.003,-0.001,21.545,-80.000
55.125,04.875,60.000,-0.003,00.000,21.544,-80.000
55.122,04.878,60.000,-0.003,-0.001,21.543,-80.000
55.118,04.882,60.000,-0.004,-0.002,21.542,-80.000
55.114,04.886,60.000,-0.004,-0.001,21.541,-80.000
55.111,04.889,60.000,-0.004,-0.000,21.540,-80.000
55.107,04.893,60.000,-0.003,-0.002,21.538,-80.000
55.104,04.896,60.000,-0.003,-0.002,21.537,-80.000
55.100,04.900,60.000,-0.003,-0.000,21.535,-80.000
55.097,04.903,60.000,-0.003,-0.001,21.535,-80.000
55.093,04.907,60.000,-0.002,-0.002,21.534,-80.000
55.090,04.910,60.000,-0.003,-0.001,21.534,-80.000
55.086,04.914,60.000,-0.003,00.000,21.533,-80.000
55.083,04.917,60.000,-0.003,-0.001,21.532,-80.000
55.079,04.921,60.000,-0.003,-0.002,21.530,-80.000
55.076,04.924,60.000,-0.004,-0.001,21.529,-80.000
55.072,04.928,60.000,-0.002,-0.000,21.528,-80.000
55.069,04.931,60.000,-0.003,-0.001,21.527,-80.000
55.065,04.935,60.000,-0.003,-0.002,21.526,-80.000
55.061,04.939,60.000,-0.002,-0.001,21.525,-80.000
55.058,04.942,60.000,-0.003,-0.000,21.523,-80.000
55.054,04.946,60.000,-0.004,-0.002,21.523,-80.000
55.051,04.949,60.000,-0.003,-0.002,21.522,-80.000
55.047,04.953,60.000,-0.003,-0.000,21.521,-80.000
55.044,04.956,60.000,-0.003,-0.001,21.519,-80.000
55.040,04.960,60.000,-0.003,-0.002,21.519,-80.000
55.037,04.963,60.000,-0.003,-0.002,21.517,-80.000
55.033,04.967,60.000,-0.003,-0.000,21.516,-80.000
55.030,04.970,60.000,-0.003,-0.001,21.516,-80.000
55.026,04.974,60.000,-0.004,-0.003,21.515,-80.000
55.023,04.977,60.000,-0.003,-0.001,21.514,-80.000
55.019,04.981,60.000,-0.004,-0.000,21.514,-80.000
55.015,04.985,60.000,-0.003,-0.002,21.513,-80.000
55.012,04.988,60.000,-0.002,-0.002,21.513,-80.000
55.008,04.992,60.000,-0.003,-0.001,21.512,-80.000
55.005,04.995,60.000,-0.003,-0.000,21.512,-80.000
55.001,04.999,60.000,-0.002,-0.002,21.511,-80.000
54.998,05.002,60.000,-0.003,-0.002,21.510,-80.000
54.994,05.006,60.000,-0.003,00.000,21.510,-80.000
54.991,05.009,60.000,-0.003,-0.001,21.509,-80.000
54.987,05.013,60.000,-0.003,-0.002,21.509,-80.000
54.984,05.016,60.000,-0.003,-0.001,21.508,-80.000
54.980,05.020,60.000,-0.003,-0.000,21.508,-80.000
54.977,05.023,60.000,-0.003,-0.002,21.507,-80.000
54.973,05.027,60.000,-0.003,-0.002,21.506,-80.000
54.970,05.030,60.000,-0.003,-0.001,21.506,-80.000
54.966,05.034,60.000,-0.003,-0.000,21.506,-80.000
54.962,05.038,60.000,-0.002,-0.002,21.506,-80.000
54.959,05.041,60.000,-0.003,-0.002,21.506,-80.000
54.955,05.045,60.000,-0.003,-0.000,21.505,-80.000
54.952,05.048,60.000,-0.003,-0.000,21.505,-80.000
54.948,05.052,60.000,-0.003,-0.003,21.504,-80.000
54.945,05.055,60.000,-0.003,-0.002,21.504,-80.000
54.941,05.059,60.000,-0.003,-0.000,21.503,-80.000
54.938,05.062,60.000,-0.003,-0.001,21.502,-80.000
54.934,05.066,60.000,-0.003,-0.002,21.501,-80.000
54.931,05.069,60.000,-0.003,-0.001,21.500,-80.000
54.927,05.073,60.000,-0.004,-0.000,21.500,-80.000
54.924,05.076,60.000,-0.003,-0.002,21.499,-80.000
54.920,05.080,60.000,-0.003,-0.002,21.499,-80.000
54.916,05.084,60.000,-0.003,-0.001,21.499,-80.000
54.913,05.087,60.000,-0.003,00.000,21.498,-80.000
54.909,05.091,60.000,-0.003,-0.002,21.498,-80.000
54.906,05.094,60.000,-0.002,-0.002,21.497,-80.000
54.902,05.098,60.000,-0.003,-0.001,21.496,-80.000
54.899,05.101,60.000,-0.004,-0.001,21.495,-80.000
54.895,05.105,60.000,-0.003,-0.002,21.494,-80.000
54.892,05.108,60.000,-0.003,-0.002,21.493,-80.000
54.888,05.112,60.000,-0.004,00.000,21.493,-80.000
54.885,05.115,60.000,-0.004,-0.001,21.493,-80.000
54.881,05.119,60.000,-0.003,-0.002,21.493,-80.000
54.878,05.122,60.000,-0.004,-0.001,21.493,-80.000
54.874,05.126,60.000,-0.003,00.000,21.493,-80.000
54.870,05.129,60.000,-0.003,-0.001,21.493,-80.000
54.867,05.133,60.000,-0.003,-0.003,21.494,-80.000
54.863,05.137,60.000,-0.003,-0.001,21.494,-80.000
54.860,05.140,60.000,-0.004,-0.000,21.494,-80.000
54.856,05.144,60.000,-0.003,-0.002,21.494,-80.000
54.853,05.147,60.000,-0.004,-0.001,21.495,-80.000
54.849,05.151,60.000,-0.004,00.000,21.495,-80.000
54.846,05.154,60.000,-0.003,-0.001,21.495,-80.000
54.842,05.158,60.000,-0.003,-0.002,21.496,-80.000
54.839,05.161,60.000,-0.004,-0.001,21.496,-80.000
54.835,05.165,60.000,-0.004,-0.000,21.497,-80.000
54.832,05.168,60.000,-0.003,-0.002,21.497,-80.000
54.828,05.172,60.000,-0.003,-0.002,21.497,-80.000
54.825,05.175,60.000,-0.004,-0.001,21.497,-80.000
54.821,05.179,60.000,-0.003,-0.000,21.496,-80.000
54.817,05.183,60.000,-0.004,-0.002,21.497,-80.000
54.814,05.186,60.000,-0.004,-0.002,21.497,-80.000
54.810,05.190,60.000,-0.003,-0.000,21.498,-80.000
54.807,05.193,60.000,-0.003,-0.000,21.498,-80.000
54.803,05.197,60.000,-0.003,-0.002,21.497,-80.000
54.800,05.200,60.000,-0.003,-0.002,21.497,-80.000
54.796,05.204,60.000,-0.003,00.001,21.497,-80.000
54.793,05.207,60.000,-0.003,-0.001,21.497,-80.000
54.789,05.211,60.000,-0.004,-0.002,21.497,-80.000
54.786,05.214,60.000,-0.003,-0.001,21.496,-80.000
54.782,05.218,60.000,-0.004,-0.000,21.496,-80.000
54.779,05.221,60.000,-0.003,-0.002,21.495,-80.000
54.775,05.225,60.000,-0.003,-0.002,21.495,-80.000
54.771,05.228,60.000,-0.003,00.000,21.495,-80.000
54.768,05.232,60.000,-0.004,-0.000,21.494,-80.000
54.764,05.236,60.000,-0.004,-0.002,21.494,-80.000
54.761,05.239,60.000,-0.003,-0.002,21.493,-80.000
54.757,05.243,60.000,-0.003,00.000,21.493,-80.000
54.754,05.246,60.000,-0.003,-0.001,21.492,-80.000
54.750,05.250,60.000,-0.003,-0.003,21.493,-80.000
54.747,05.253,60.000,-0.003,-0.001,21.493,-80.000
54.743,05.257,60.000,-0.003,00.000,21.493,-80.000
54.740,05.260,60.000,-0.004,-0.001,21.494,-80.000
54.736,05.264,60.000,-0.004,-0.002,21.494,-80.000
54.733,05.267,60.000,-0.003,-0.001,21.494,-80.000
54.729,05.271,60.000,-0.003,-0.000,21.494,-80.000
54.726,05.274,60.000,-0.004,-0.002,21.494,-80.000
54.722,05.278,60.000,-0.004,-0.002,21.494,-80.000
54.718,05.282,60.000,-0.003,-0.000,21.493,-80.000
54.715,05.285,60.000,-0.003,-0.001,21.492,-80.000
54.711,05.289,60.000,-0.004,-0.002,21.493,-80.000
54.708,05.292,60.000,-0.003,-0.001,21.493,-80.000
54.704,05.296,60.000,-0.003,00.000,21.492,-80.000
54.701,05.299,60.000,-0.004,-0.001,21.492,-80.000
54.697,05.303,60.000,-0.003,-0.002,21.490,-80.000
54.694,05.306,60.000,-0.004,-0.001,21.489,-80.000
54.690,05.310,60.000,-0.004,00.000,21.488,-80.000
54.687,05.313,60.000,-0.004,-0.002,21.488,-80.000
54.683,05.317,60.000,-0.003,-0.002,21.487,-80.000
54.680,05.320,60.000,-0.003,-0.000,21.485,-80.000
54.676,05.324,60.000,-0.004,00.000,21.484,-80.000
54.672,05.328,60.000,-0.003,-0.002,21.482,-80.000
54.669,05.331,60.000,-0.004,-0.002,21.481,-80.000
54.665,05.335,60.000,-0.003,00.000,21.481,-80.000
54.662,05.338,60.000,-0.004,-0.000,21.480,-80.000
54.658,05.342,60.000,-0.003,-0.003,21.479,-80.000
54.655,05.345,60.000,-0.004,-0.001,21.478,-80.000
54.651,05.349,60.000,-0.003,-0.000,21.477,-80.000
54.648,05.352,60.000,-0.004,-0.002,21.476,-80.000
54.644,05.356,60.000,-0.003,-0.003,21.476,-80.000
54.641,05.359,60.000,-0.004,-0.001,21.474,-80.000
54.637,05.363,60.000,-0.004,-0.000,21.474,-80.000
54.634,05.366,60.000,-0.003,-0.002,21.474,-80.000
54.630,05.370,60.000,-0.003,-0.002,21.473,-80.000
54.627,05.373,60.000,-0.004,-0.000,21.473,-80.000
54.623,05.377,60.000,-0.004,-0.001,21.473,-80.000
54.619,05.381,60.000,-0.004,-0.002,21.473,-80.000
54.616,05.384,60.000,-0.003,-0.002,21.472,-80.000
54.612,05.388,60.000,-0.004,00.000,21.471,-80.000
54.609,05.391,60.000,-0.004,-0.001,21.472,-80.000
54.605,05.395,60.000,-0.004,-0.003,21.471,-80.000
54.602,05.398,60.000,-0.004,-0.001,21.469,-80.000
54.598,05.402,60.000,-0.004,-0.001,21.469,-80.000
54.595,05.405,60.000,-0.004,-0.002,21.472,-80.000
54.591,05.409,60.000,-0.004,-0.003,21.471,-80.000
54.588,05.412,60.000,-0.004,-0.000,21.472,-80.000
54.584,05.416,60.000,-0.004,-0.001,21.473,-80.000
54.581,05.419,60.000,-0.004,-0.002,21.472,-80.000
54.577,05.423,60.000,-0.004,-0.002,21.473,-80.000
54.573,05.426,60.000,-0.004,-0.000,21.473,-80.000
54.570,05.430,60.000,-0.004,-0.001,21.472,-80.000
54.566,05.434,60.000,-0.003,-0.003,21.474,-80.000
54.563,05.437,60.000,-0.004,-0.002,21.474,-80.000
54.559,05.441,60.000,-0.004,00.000,21.475,-80.000
54.556,05.444,60.000,-0.004,-0.002,21.475,-80.000
54.552,05.448,60.000,-0.003,-0.002,21.476,-80.000
54.549,05.451,60.000,-0.003,-0.000,21.476,-80.000
54.545,05.455,60.000,-0.004,00.000,21.475,-80.000
54.542,05.458,60.000,-0.003,-0.002,21.476,-80.000
54.538,05.462,60.000,-0.003,-0.002,21.476,-80.000
54.535,05.465,60.000,-0.004,-0.000,21.477,-80.000
54.531,05.469,60.000,-0.003,-0.001,21.477,-80.000
